{"componentChunkName":"component---node-modules-gatsby-theme-buzzing-src-gatsby-theme-timeline-templates-posts-query-js","path":"/en/tags/ask-reddit/page/28","result":{"data":{"site":{"siteMetadata":{"title":"Reddit 热门提问","description":"用中文浏览 Reddit 上的热门提问","social":[{"name":"Ask Reddit","url":"https://www.reddit.com/r/AskReddit/","external":true,"prefetch":null},{"name":"Ask Politics","url":"https://www.reddit.com/r/Ask_Politics/","external":true,"prefetch":null},{"name":"Ask Historians","url":"https://www.reddit.com/r/AskHistorians/","external":true,"prefetch":null},{"name":"Ask Men","url":"https://www.reddit.com/r/AskMen/","external":true,"prefetch":null},{"name":"Ask Women","url":"https://www.reddit.com/r/AskWomen/","external":true,"prefetch":null},{"name":"Too Afraid To Ask","url":"https://www.reddit.com/r/TooAfraidToAsk/","external":true,"prefetch":null},{"name":"Buzzing","url":"https://www.buzzing.cc/","external":true,"prefetch":null}],"menuLinks":[],"localize":[{"locale":"en","title":"Buzzing on Ask","description":"See what's buzzing on Ask Headline in your native language","social":[{"name":"Reddit","url":"https://www.reddit.com/","external":true,"prefetch":null}],"menuLinks":[{"name":"Weekly Selection","url":"/issues","external":null,"prefetch":null}]},{"locale":"zh-Hant","title":"Reddit 熱門提問","description":"用中文瀏覽 Reddit 上的熱門提問","social":null,"menuLinks":[]}]}},"tagsGroup":{"group":[{"fieldValue":"AskHistorians","totalCount":332},{"fieldValue":"AskMen","totalCount":104},{"fieldValue":"AskReddit","totalCount":686},{"fieldValue":"AskWomen","totalCount":225},{"fieldValue":"Ask_Politics","totalCount":46},{"fieldValue":"NoStupidQuestions","totalCount":312},{"fieldValue":"TooAfraidToAsk","totalCount":225},{"fieldValue":"TrueAskReddit","totalCount":30},{"fieldValue":"askphilosophy","totalCount":58},{"fieldValue":"askscience","totalCount":141},{"fieldValue":"reddit","totalCount":2159}]},"allBlogPost":{"nodes":[{"__typename":"SocialMediaPost","id":"RedditPost-kx9rll","excerpt":"","slug":"/reddit/r/AskReddit/comments/kx9rll/people_who_work_with_dogs_professionally_who_was/","title":"People who work with dogs professionally: Who was the dumbest dog you've ever had the privilege to meet?","date":"January 15, 2021","dateISO":"2021-01-15T03:31:05.000Z","datetime":"2021-01-15 03:31","tags":["AskReddit","reddit"],"image":null,"imageAlt":null,"provider":"Reddit","thirdPartyId":"kx9rll","url":"https://www.reddit.com/r/AskReddit/comments/kx9rll/people_who_work_with_dogs_professionally_who_was/","originalUrl":"https://www.reddit.com/r/AskReddit/comments/kx9rll/people_who_work_with_dogs_professionally_who_was/","imageRemote":null,"video":null,"channel":"AskReddit","channelUrl":"https://www.reddit.com/r/AskReddit","author":"BandaidPuppet","authorUrl":"https://www.reddit.com/user/BandaidPuppet","authorImage":null,"authorSlug":"BandaidPuppet","score":1099,"views":null,"sharedCount":null,"likeCount":null,"sharedContent":null,"parent":{"__typename":"RedditJson","localize":[{"title":"专业与狗打交道的人。谁是你见过的最笨的狗？","the_new_excerpt":null,"locale":"zh"},{"title":"專業與狗打交道的人。誰是你見過的最笨的狗？","the_new_excerpt":null,"locale":"zh-Hant"}]}},{"__typename":"SocialMediaPost","id":"RedditPost-kxbzv3","excerpt":"","slug":"/reddit/r/AskReddit/comments/kxbzv3/former_flat_earthers_what_made_you_come_round/","title":"Former Flat Earthers. What made you come round?","date":"January 14, 2021","dateISO":"2021-01-14T21:38:15.000Z","datetime":"2021-01-14 21:38","tags":["AskReddit","reddit"],"image":null,"imageAlt":null,"provider":"Reddit","thirdPartyId":"kxbzv3","url":"https://www.reddit.com/r/AskReddit/comments/kxbzv3/former_flat_earthers_what_made_you_come_round/","originalUrl":"https://www.reddit.com/r/AskReddit/comments/kxbzv3/former_flat_earthers_what_made_you_come_round/","imageRemote":null,"video":null,"channel":"AskReddit","channelUrl":"https://www.reddit.com/r/AskReddit","author":"jbarms","authorUrl":"https://www.reddit.com/user/jbarms","authorImage":null,"authorSlug":"jbarms","score":6269,"views":null,"sharedCount":null,"likeCount":null,"sharedContent":null,"parent":{"__typename":"RedditJson","localize":[{"title":"前 \"平耳派 \"成员 是什么让你转过来的？","the_new_excerpt":null,"locale":"zh"},{"title":"前 \"平耳派 \"成員 是什麼讓你轉過來的？","the_new_excerpt":null,"locale":"zh-Hant"}]}},{"__typename":"SocialMediaPost","id":"RedditPost-kx6y5x","excerpt":"","slug":"/reddit/r/AskReddit/comments/kx6y5x/whats_the_most_well_no_shit_scientific_study/","title":"What's the most \"Well, no shit!\" Scientific study conclusion that you've ever seen?","date":"January 14, 2021","dateISO":"2021-01-14T19:36:02.000Z","datetime":"2021-01-14 19:36","tags":["AskReddit","reddit"],"image":null,"imageAlt":null,"provider":"Reddit","thirdPartyId":"kx6y5x","url":"https://www.reddit.com/r/AskReddit/comments/kx6y5x/whats_the_most_well_no_shit_scientific_study/","originalUrl":"https://www.reddit.com/r/AskReddit/comments/kx6y5x/whats_the_most_well_no_shit_scientific_study/","imageRemote":null,"video":null,"channel":"AskReddit","channelUrl":"https://www.reddit.com/r/AskReddit","author":"tavenger5","authorUrl":"https://www.reddit.com/user/tavenger5","authorImage":null,"authorSlug":"tavenger5","score":1497,"views":null,"sharedCount":null,"likeCount":null,"sharedContent":null,"parent":{"__typename":"RedditJson","localize":[{"title":"什么是你见过的最 \"嗯，不是吧！\"的科学研究结论？你见过的科学研究结论是什么？","the_new_excerpt":null,"locale":"zh"},{"title":"什麼是你見過的最 \"嗯，不是吧！\"的科學研究結論？你見過的科學研究結論是什麼？","the_new_excerpt":null,"locale":"zh-Hant"}]}},{"__typename":"SocialMediaPost","id":"RedditPost-kwvdr2","excerpt":"","slug":"/reddit/r/AskReddit/comments/kwvdr2/whats_something_youre_really_good_at_but_dont/","title":"What’s something you’re really good at but don’t actually enjoy?","date":"January 14, 2021","dateISO":"2021-01-14T18:36:28.000Z","datetime":"2021-01-14 18:36","tags":["AskReddit","reddit"],"image":null,"imageAlt":null,"provider":"Reddit","thirdPartyId":"kwvdr2","url":"https://www.reddit.com/r/AskReddit/comments/kwvdr2/whats_something_youre_really_good_at_but_dont/","originalUrl":"https://www.reddit.com/r/AskReddit/comments/kwvdr2/whats_something_youre_really_good_at_but_dont/","imageRemote":null,"video":null,"channel":"AskReddit","channelUrl":"https://www.reddit.com/r/AskReddit","author":"itch-bay","authorUrl":"https://www.reddit.com/user/itch-bay","authorImage":null,"authorSlug":"itch-bay","score":1011,"views":null,"sharedCount":null,"likeCount":null,"sharedContent":null,"parent":{"__typename":"RedditJson","localize":[{"title":"有什么事情是你真正擅长但其实并不喜欢的？","the_new_excerpt":null,"locale":"zh"},{"title":"有什麼事情是你真正擅長但其實並不喜歡的？","the_new_excerpt":null,"locale":"zh-Hant"}]}},{"__typename":"SocialMediaPost","id":"RedditPost-kwlj4g","excerpt":"","slug":"/reddit/r/AskReddit/comments/kwlj4g/what_loophole_did_you_exploit_mercilessly/","title":"What loophole did you exploit mercilessly?","date":"January 14, 2021","dateISO":"2021-01-14T16:41:41.000Z","datetime":"2021-01-14 16:41","tags":["AskReddit","reddit"],"image":null,"imageAlt":null,"provider":"Reddit","thirdPartyId":"kwlj4g","url":"https://www.reddit.com/r/AskReddit/comments/kwlj4g/what_loophole_did_you_exploit_mercilessly/","originalUrl":"https://www.reddit.com/r/AskReddit/comments/kwlj4g/what_loophole_did_you_exploit_mercilessly/","imageRemote":null,"video":null,"channel":"AskReddit","channelUrl":"https://www.reddit.com/r/AskReddit","author":"Thym3Travlr","authorUrl":"https://www.reddit.com/user/Thym3Travlr","authorImage":null,"authorSlug":"Thym3Travlr","score":1748,"views":null,"sharedCount":null,"likeCount":null,"sharedContent":null,"parent":{"__typename":"RedditJson","localize":[{"title":"你无情地利用了什么漏洞？","the_new_excerpt":null,"locale":"zh"},{"title":"你無情地利用了什麼漏洞？","the_new_excerpt":null,"locale":"zh-Hant"}]}},{"__typename":"SocialMediaPost","id":"RedditPost-kwlufq","excerpt":"","slug":"/reddit/r/AskReddit/comments/kwlufq/have_you_ever_woke_up_in_the_middle_of_a_dream/","title":"Have you ever woke up in the middle of a dream and the dream was so interesting that you wanted to go back to sleep to see the end of it? If so, what was the dream?","date":"January 14, 2021","dateISO":"2021-01-14T16:41:41.000Z","datetime":"2021-01-14 16:41","tags":["AskReddit","reddit"],"image":null,"imageAlt":null,"provider":"Reddit","thirdPartyId":"kwlufq","url":"https://www.reddit.com/r/AskReddit/comments/kwlufq/have_you_ever_woke_up_in_the_middle_of_a_dream/","originalUrl":"https://www.reddit.com/r/AskReddit/comments/kwlufq/have_you_ever_woke_up_in_the_middle_of_a_dream/","imageRemote":null,"video":null,"channel":"AskReddit","channelUrl":"https://www.reddit.com/r/AskReddit","author":"Snorris8","authorUrl":"https://www.reddit.com/user/Snorris8","authorImage":null,"authorSlug":"Snorris8","score":64862,"views":null,"sharedCount":null,"likeCount":null,"sharedContent":null,"parent":{"__typename":"RedditJson","localize":[{"title":"你是否曾在梦中醒来，梦境非常有趣，以至于你想继续睡下去看个究竟？如果有，那是什么梦？","the_new_excerpt":null,"locale":"zh"},{"title":"你是否曾在夢中醒來，夢境非常有趣，以至於你想繼續睡下去看個究竟？如果有，那是什麼夢？","the_new_excerpt":null,"locale":"zh-Hant"}]}},{"__typename":"SocialMediaPost","id":"RedditPost-kws1kq","excerpt":"","slug":"/reddit/r/AskReddit/comments/kws1kq/youre_tasked_with_introducing_3_movies_to_someone/","title":"You’re tasked with introducing 3 movies to someone who has never watched a movie. The criteria: a movie that scared you, a movie that made you laugh out loud, and a movie that had your mind blown at the end. What 3 movies do you pick?","date":"January 14, 2021","dateISO":"2021-01-14T16:41:41.000Z","datetime":"2021-01-14 16:41","tags":["AskReddit","reddit"],"image":null,"imageAlt":null,"provider":"Reddit","thirdPartyId":"kws1kq","url":"https://www.reddit.com/r/AskReddit/comments/kws1kq/youre_tasked_with_introducing_3_movies_to_someone/","originalUrl":"https://www.reddit.com/r/AskReddit/comments/kws1kq/youre_tasked_with_introducing_3_movies_to_someone/","imageRemote":null,"video":null,"channel":"AskReddit","channelUrl":"https://www.reddit.com/r/AskReddit","author":"chitownfan92","authorUrl":"https://www.reddit.com/user/chitownfan92","authorImage":null,"authorSlug":"chitownfan92","score":19104,"views":null,"sharedCount":null,"likeCount":null,"sharedContent":null,"parent":{"__typename":"RedditJson","localize":[{"title":"你的任务是向从未看过电影的人介绍3部电影。标准是：一部让你害怕的电影，一部让你大笑的电影，一部让你在最后被震撼的电影。你选哪3部电影？","the_new_excerpt":null,"locale":"zh"},{"title":"你的任務是向從未看過電影的人介紹3部電影。標準是：一部讓你害怕的電影，一部讓你大笑的電影，一部讓你在最後被震撼的電影。你選哪3部電影？","the_new_excerpt":null,"locale":"zh-Hant"}]}},{"__typename":"SocialMediaPost","id":"RedditPost-kwtj6a","excerpt":"","slug":"/reddit/r/AskReddit/comments/kwtj6a/serious_what_is_your_im_glad_i_didnt_commit/","title":"[Serious] What is your \"I'm glad I didn't commit suicide when things were bad\" story?","date":"January 14, 2021","dateISO":"2021-01-14T16:41:41.000Z","datetime":"2021-01-14 16:41","tags":["AskReddit","reddit"],"image":null,"imageAlt":null,"provider":"Reddit","thirdPartyId":"kwtj6a","url":"https://www.reddit.com/r/AskReddit/comments/kwtj6a/serious_what_is_your_im_glad_i_didnt_commit/","originalUrl":"https://www.reddit.com/r/AskReddit/comments/kwtj6a/serious_what_is_your_im_glad_i_didnt_commit/","imageRemote":null,"video":null,"channel":"AskReddit","channelUrl":"https://www.reddit.com/r/AskReddit","author":"vixissitude","authorUrl":"https://www.reddit.com/user/vixissitude","authorImage":null,"authorSlug":"vixissitude","score":1369,"views":null,"sharedCount":null,"likeCount":null,"sharedContent":null,"parent":{"__typename":"RedditJson","localize":[{"title":"[严肃]你的 \"我很庆幸我没有在事情不好的时候自杀 \"的故事是什么？","the_new_excerpt":null,"locale":"zh"},{"title":"[嚴肅]你的 \"我很慶幸我沒有在事情不好的時候自殺 \"的故事是什麼？","the_new_excerpt":null,"locale":"zh-Hant"}]}},{"__typename":"SocialMediaPost","id":"RedditPost-kwuoq0","excerpt":"","slug":"/reddit/r/AskReddit/comments/kwuoq0/urban_explorer_of_reddit_what_was_your_i_better/","title":"Urban explorer of Reddit, what was your \"I better gtfo\" story?","date":"January 14, 2021","dateISO":"2021-01-14T16:41:41.000Z","datetime":"2021-01-14 16:41","tags":["AskReddit","reddit"],"image":null,"imageAlt":null,"provider":"Reddit","thirdPartyId":"kwuoq0","url":"https://www.reddit.com/r/AskReddit/comments/kwuoq0/urban_explorer_of_reddit_what_was_your_i_better/","originalUrl":"https://www.reddit.com/r/AskReddit/comments/kwuoq0/urban_explorer_of_reddit_what_was_your_i_better/","imageRemote":null,"video":null,"channel":"AskReddit","channelUrl":"https://www.reddit.com/r/AskReddit","author":"bebeJuan","authorUrl":"https://www.reddit.com/user/bebeJuan","authorImage":null,"authorSlug":"bebeJuan","score":40671,"views":null,"sharedCount":null,"likeCount":null,"sharedContent":null,"parent":{"__typename":"RedditJson","localize":[{"title":"Reddit的城市探索者，你的 \"我最好gtfo \"故事是什么？","the_new_excerpt":null,"locale":"zh"},{"title":"Reddit的城市探索者，你的 \"我最好gtfo \"故事是什麼？","the_new_excerpt":null,"locale":"zh-Hant"}]}},{"__typename":"SocialMediaPost","id":"RedditPost-kx0b1y","excerpt":"","slug":"/reddit/r/AskReddit/comments/kx0b1y/you_are_offered_a_million_dollars_but_to_claim_it/","title":"You are offered a million dollars, but to claim it you must enter the last video game you played, and stay there for a year. If you accept the money, how's life there?","date":"January 14, 2021","dateISO":"2021-01-14T16:41:41.000Z","datetime":"2021-01-14 16:41","tags":["AskReddit","reddit"],"image":null,"imageAlt":null,"provider":"Reddit","thirdPartyId":"kx0b1y","url":"https://www.reddit.com/r/AskReddit/comments/kx0b1y/you_are_offered_a_million_dollars_but_to_claim_it/","originalUrl":"https://www.reddit.com/r/AskReddit/comments/kx0b1y/you_are_offered_a_million_dollars_but_to_claim_it/","imageRemote":null,"video":null,"channel":"AskReddit","channelUrl":"https://www.reddit.com/r/AskReddit","author":"clarishwang","authorUrl":"https://www.reddit.com/user/clarishwang","authorImage":null,"authorSlug":"clarishwang","score":32483,"views":null,"sharedCount":null,"likeCount":null,"sharedContent":null,"parent":{"__typename":"RedditJson","localize":[{"title":"你提供了一百万美元，但要索取它，你必须进入你玩的最后一个视频游戏，并留在那里一年。如果你接受了这笔钱，如何生活在那里？","the_new_excerpt":null,"locale":"zh"},{"title":"你提供了一百萬美元，但要索取它，你必須進入你玩的最後一個視頻遊戲，並留在那裏一年。如果你接受了這筆錢，如何生活在那裏？","the_new_excerpt":null,"locale":"zh-Hant"}]}},{"__typename":"SocialMediaPost","id":"RedditPost-kx44vd","excerpt":"","slug":"/reddit/r/AskReddit/comments/kx44vd/women_of_reddit_do_you_also_get_horny_singles_in/","title":"Women of reddit, do you also get 'horny singles in your area' ads, if not, what are your standard adverts?","date":"January 14, 2021","dateISO":"2021-01-14T16:41:41.000Z","datetime":"2021-01-14 16:41","tags":["AskReddit","reddit"],"image":null,"imageAlt":null,"provider":"Reddit","thirdPartyId":"kx44vd","url":"https://www.reddit.com/r/AskReddit/comments/kx44vd/women_of_reddit_do_you_also_get_horny_singles_in/","originalUrl":"https://www.reddit.com/r/AskReddit/comments/kx44vd/women_of_reddit_do_you_also_get_horny_singles_in/","imageRemote":null,"video":null,"channel":"AskReddit","channelUrl":"https://www.reddit.com/r/AskReddit","author":"Aperson1966","authorUrl":"https://www.reddit.com/user/Aperson1966","authorImage":null,"authorSlug":"Aperson1966","score":7079,"views":null,"sharedCount":null,"likeCount":null,"sharedContent":null,"parent":{"__typename":"RedditJson","localize":[{"title":"红网的女性，你也会收到 \"你所在地区的饥渴单身汉 \"的广告，如果没有，你的标准广告是什么？","the_new_excerpt":null,"locale":"zh"},{"title":"紅網的女性，你也會收到 \"你所在地區的飢渴單身漢 \"的廣告，如果沒有，你的標準廣告是什麼？","the_new_excerpt":null,"locale":"zh-Hant"}]}}]}},"pageContext":{"basePath":"/","pageType":"tag","tag":"AskReddit","tagsFilter":{"id":{"glob":"!*Post-1"}},"filter":{"id":{"glob":"!*Post-1"},"tags":{"eq":"AskReddit"}},"limit":25,"skip":675,"total":686,"totalPages":28,"currentPage":28,"maxWidth":1024,"maxHeight":512,"locale":"en","hrefLang":"en-US","originalPath":"/tags/ask-reddit/page/28","dateFormat":"MM/DD/YYYY"}},"staticQueryHashes":["1239077767","2506312863","2744905544","3025052997","3493603132","3493603132","3513215887","386998304"]}