{"componentChunkName":"component---node-modules-gatsby-theme-buzzing-src-gatsby-theme-timeline-templates-posts-query-js","path":"/tags/true-ask-reddit/page/2","result":{"data":{"site":{"siteMetadata":{"title":"Reddit 热门提问","description":"用中文浏览 Reddit 上的热门提问","social":[{"name":"Ask Reddit","url":"https://www.reddit.com/r/AskReddit/","external":true,"prefetch":null},{"name":"Ask Politics","url":"https://www.reddit.com/r/Ask_Politics/","external":true,"prefetch":null},{"name":"Ask Historians","url":"https://www.reddit.com/r/AskHistorians/","external":true,"prefetch":null},{"name":"Ask Men","url":"https://www.reddit.com/r/AskMen/","external":true,"prefetch":null},{"name":"Ask Women","url":"https://www.reddit.com/r/AskWomen/","external":true,"prefetch":null},{"name":"Too Afraid To Ask","url":"https://www.reddit.com/r/TooAfraidToAsk/","external":true,"prefetch":null},{"name":"Buzzing","url":"https://www.buzzing.cc/","external":true,"prefetch":null}],"menuLinks":[],"localize":[{"locale":"en","title":"Buzzing on Ask","description":"See what's buzzing on Ask Headline in your native language","social":[{"name":"Reddit","url":"https://www.reddit.com/","external":true,"prefetch":null}],"menuLinks":[{"name":"Weekly Selection","url":"/issues","external":null,"prefetch":null}]},{"locale":"zh-Hant","title":"Reddit 熱門提問","description":"用中文瀏覽 Reddit 上的熱門提問","social":null,"menuLinks":[]}]}},"tagsGroup":{"group":[{"fieldValue":"AskHistorians","totalCount":332},{"fieldValue":"AskMen","totalCount":104},{"fieldValue":"AskReddit","totalCount":686},{"fieldValue":"AskWomen","totalCount":225},{"fieldValue":"Ask_Politics","totalCount":46},{"fieldValue":"NoStupidQuestions","totalCount":312},{"fieldValue":"TooAfraidToAsk","totalCount":225},{"fieldValue":"TrueAskReddit","totalCount":30},{"fieldValue":"askphilosophy","totalCount":58},{"fieldValue":"askscience","totalCount":141},{"fieldValue":"reddit","totalCount":2159}]},"allBlogPost":{"nodes":[{"__typename":"SocialMediaPost","id":"RedditPost-l2qjjh","excerpt":"No, I do not plan to suicide. It's just that all of us eventually die. There's\nno greater meaning. At some point everyone will be forgotten. No matter how much\nthey help the human race, they will eventually be forgotten. I have had this\nthought for quite some time and I wasn't able to find a…","slug":"/reddit/r/TrueAskReddit/comments/l2qjjh/this_probably_has_been_asked_a_lot_but_what_is/","title":"This probably has been asked a lot, but what is the point in living?","date":"January 23, 2021","dateISO":"2021-01-23T04:04:30.000Z","datetime":"2021-01-23 04:04","tags":["TrueAskReddit","reddit"],"image":null,"imageAlt":null,"provider":"Reddit","thirdPartyId":"l2qjjh","url":"https://www.reddit.com/r/TrueAskReddit/comments/l2qjjh/this_probably_has_been_asked_a_lot_but_what_is/","originalUrl":"https://www.reddit.com/r/TrueAskReddit/comments/l2qjjh/this_probably_has_been_asked_a_lot_but_what_is/","imageRemote":null,"video":null,"channel":"TrueAskReddit","channelUrl":"https://www.reddit.com/r/TrueAskReddit","author":"Manvav","authorUrl":"https://www.reddit.com/user/Manvav","authorImage":null,"authorSlug":"Manvav","score":147,"views":null,"sharedCount":null,"likeCount":null,"sharedContent":null,"parent":{"__typename":"RedditJson","localize":[{"title":"这可能已经被问过很多了，但活着的意义是什么？","the_new_excerpt":"不，我不打算自杀。只是我们每个人最终都会死。有\n没有更大的意义。在某些时候，每个人都会被遗忘。不管有多\n他们帮助人类，他们最终会被遗忘。我有过这样的经历\n想了好久，我也没能找到... ...","locale":"zh"},{"title":"這可能已經被問過很多了，但活着的意義是什麼？","the_new_excerpt":"不，我不打算自殺。只是我們每個人最終都會死。有\n沒有更大的意義。在某些時候，每個人都會被遺忘。不管有多\n他們幫助人類，他們最終會被遺忘。我有過這樣的經歷\n想了好久，我也沒能找到... ...","locale":"zh-Hant"}]}},{"__typename":"SocialMediaPost","id":"RedditPost-l0d74w","excerpt":"","slug":"/reddit/r/TrueAskReddit/comments/l0d74w/why_are_languages_dieing_considered_a_bad_thing/","title":"Why are languages dieing considered a bad thing? Isn't it good for everyone being able to understand everyone else?","date":"January 19, 2021","dateISO":"2021-01-19T17:09:30.000Z","datetime":"2021-01-19 17:09","tags":["TrueAskReddit","reddit"],"image":null,"imageAlt":null,"provider":"Reddit","thirdPartyId":"l0d74w","url":"https://www.reddit.com/r/TrueAskReddit/comments/l0d74w/why_are_languages_dieing_considered_a_bad_thing/","originalUrl":"https://www.reddit.com/r/TrueAskReddit/comments/l0d74w/why_are_languages_dieing_considered_a_bad_thing/","imageRemote":null,"video":null,"channel":"TrueAskReddit","channelUrl":"https://www.reddit.com/r/TrueAskReddit","author":"0x726564646974","authorUrl":"https://www.reddit.com/user/0x726564646974","authorImage":null,"authorSlug":"0x726564646974","score":106,"views":null,"sharedCount":null,"likeCount":null,"sharedContent":null,"parent":{"__typename":"RedditJson","localize":[{"title":"为什么语言的消亡被认为是一件坏事？大家都能理解别人，这不是好事吗？","the_new_excerpt":null,"locale":"zh"},{"title":"爲什麼語言的消亡被認爲是一件壞事？大家都能理解別人，這不是好事嗎？","the_new_excerpt":null,"locale":"zh-Hant"}]}},{"__typename":"SocialMediaPost","id":"RedditPost-kzh1a1","excerpt":"What do we have to do as a society and as individuals to eliminate click bait\nnews and get a better representation of the world?","slug":"/reddit/r/TrueAskReddit/comments/kzh1a1/how_do_we_eliminate_click_bait_news/","title":"How do we eliminate click bait news?","date":"January 18, 2021","dateISO":"2021-01-18T15:53:25.000Z","datetime":"2021-01-18 15:53","tags":["TrueAskReddit","reddit"],"image":null,"imageAlt":null,"provider":"Reddit","thirdPartyId":"kzh1a1","url":"https://www.reddit.com/r/TrueAskReddit/comments/kzh1a1/how_do_we_eliminate_click_bait_news/","originalUrl":"https://www.reddit.com/r/TrueAskReddit/comments/kzh1a1/how_do_we_eliminate_click_bait_news/","imageRemote":null,"video":null,"channel":"TrueAskReddit","channelUrl":"https://www.reddit.com/r/TrueAskReddit","author":"ForTamriel","authorUrl":"https://www.reddit.com/user/ForTamriel","authorImage":null,"authorSlug":"ForTamriel","score":101,"views":null,"sharedCount":null,"likeCount":null,"sharedContent":null,"parent":{"__typename":"RedditJson","localize":[{"title":"如何消除点击诱饵新闻？","the_new_excerpt":"作为社会和个人，我们要怎么做才能杜绝点击诱饵？\n新闻，并得到更好的体现?","locale":"zh"},{"title":"如何消除點擊誘餌新聞？","the_new_excerpt":"作爲社會和個人，我們要怎麼做才能杜絕點擊誘餌？\n新聞，並得到更好的體現?","locale":"zh-Hant"}]}},{"__typename":"SocialMediaPost","id":"RedditPost-kymmq8","excerpt":"my buddy got mad he burned his bagel bc i use the toaster at a higher setting,\nand he told me to remember to put the toaster back at the setting after i use\nit.\n\ni kept it to myself, but how hard is it to just check the knob before you slam\nyour toast in there? i do it every time.\n\nthis is a shallow…","slug":"/reddit/r/TrueAskReddit/comments/kymmq8/how_can_you_tell_when_youre_being_unreasonable/","title":"how can you tell when youre being unreasonable?","date":"January 17, 2021","dateISO":"2021-01-17T02:13:00.000Z","datetime":"2021-01-17 02:13","tags":["TrueAskReddit","reddit"],"image":null,"imageAlt":null,"provider":"Reddit","thirdPartyId":"kymmq8","url":"https://www.reddit.com/r/TrueAskReddit/comments/kymmq8/how_can_you_tell_when_youre_being_unreasonable/","originalUrl":"https://www.reddit.com/r/TrueAskReddit/comments/kymmq8/how_can_you_tell_when_youre_being_unreasonable/","imageRemote":null,"video":null,"channel":"TrueAskReddit","channelUrl":"https://www.reddit.com/r/TrueAskReddit","author":"stregg7attikos","authorUrl":"https://www.reddit.com/user/stregg7attikos","authorImage":null,"authorSlug":"stregg7attikos","score":104,"views":null,"sharedCount":null,"likeCount":null,"sharedContent":null,"parent":{"__typename":"RedditJson","localize":[{"title":"你怎么知道你什么时候是不讲理的？","the_new_excerpt":"我的朋友很生气，他烧了他的百吉饼，因为我用面包机在一个较高的设置。\n他告诉我，要记得把烤面包机回在设置后，我使用\n它。\n\n我把它留给自己，但它有多难，只是检查 旋钮之前，你抨击。\n你的吐司在那里 我每次都这样做。\n\n这是一个浅...","locale":"zh"},{"title":"你怎麼知道你什麼時候是不講理的？","the_new_excerpt":"我的朋友很生氣，他燒了他的百吉餅，因爲我用麪包機在一個較高的設置。\n他告訴我，要記得把烤麪包機回在設置後，我使用\n它。\n\n我把它留給自己，但它有多難，只是檢查 旋鈕之前，你抨擊。\n你的吐司在那裏 我每次都這樣做。\n\n這是一個淺...","locale":"zh-Hant"}]}},{"__typename":"SocialMediaPost","id":"RedditPost-kx6e3i","excerpt":"We know that mental and emotional suffering is real and has an expansive impact\non someone's quality of life and on those around them. There are ongoing\ndiscussions around the right to die in terms of euthanasia and suicide as well.\nI believe that people who have mental illness or have experienced…","slug":"/reddit/r/TrueAskReddit/comments/kx6e3i/if_all_suffering_is_not_physical_why_is_the_right/","title":"If all suffering is not physical, why is the right to die not fully extended to people with trauma/mental illness?","date":"January 14, 2021","dateISO":"2021-01-14T22:10:03.000Z","datetime":"2021-01-14 22:10","tags":["TrueAskReddit","reddit"],"image":null,"imageAlt":null,"provider":"Reddit","thirdPartyId":"kx6e3i","url":"https://www.reddit.com/r/TrueAskReddit/comments/kx6e3i/if_all_suffering_is_not_physical_why_is_the_right/","originalUrl":"https://www.reddit.com/r/TrueAskReddit/comments/kx6e3i/if_all_suffering_is_not_physical_why_is_the_right/","imageRemote":null,"video":null,"channel":"TrueAskReddit","channelUrl":"https://www.reddit.com/r/TrueAskReddit","author":"Aggravating-Goose","authorUrl":"https://www.reddit.com/user/Aggravating-Goose","authorImage":null,"authorSlug":"Aggravating-Goose","score":131,"views":null,"sharedCount":null,"likeCount":null,"sharedContent":null,"parent":{"__typename":"RedditJson","localize":[{"title":"如果所有的痛苦都不是肉体上的，那么为什么死亡权没有充分扩大到有创伤/精神疾病的人？","the_new_excerpt":"我们知道，精神和情感上的痛苦是真实存在的，并具有广泛的影响。\n对一个人的生活质量和周围的人都有影响。有持续的\n在安乐死和自杀方面，围绕死亡权的讨论也是如此。\n我相信，有精神疾病或经历过的人... ...","locale":"zh"},{"title":"如果所有的痛苦都不是肉體上的，那麼爲什麼死亡權沒有充分擴大到有創傷/精神疾病的人？","the_new_excerpt":"我們知道，精神和情感上的痛苦是真實存在的，並具有廣泛的影響。\n對一個人的生活質量和周圍的人都有影響。有持續的\n在安樂死和自殺方面，圍繞死亡權的討論也是如此。\n我相信，有精神疾病或經歷過的人... ...","locale":"zh-Hant"}]}}]}},"pageContext":{"basePath":"/","pageType":"tag","tag":"TrueAskReddit","tagsFilter":{"id":{"glob":"!*Post-1"}},"filter":{"id":{"glob":"!*Post-1"},"tags":{"eq":"TrueAskReddit"}},"limit":25,"skip":25,"total":30,"totalPages":2,"currentPage":2,"maxWidth":1024,"maxHeight":512,"locale":"zh","hrefLang":"zh-Hans","originalPath":"/tags/true-ask-reddit/page/2","dateFormat":"YYYY-MM-DD"}},"staticQueryHashes":["1239077767","2506312863","2744905544","3025052997","3493603132","3493603132","3513215887","386998304"]}