{"componentChunkName":"component---node-modules-gatsby-theme-buzzing-src-gatsby-theme-timeline-templates-posts-query-js","path":"/tags/askscience/page/6","result":{"data":{"site":{"siteMetadata":{"title":"Reddit 热门提问","description":"用中文浏览 Reddit 上的热门提问","social":[{"name":"Ask Reddit","url":"https://www.reddit.com/r/AskReddit/","external":true,"prefetch":null},{"name":"Ask Politics","url":"https://www.reddit.com/r/Ask_Politics/","external":true,"prefetch":null},{"name":"Ask Historians","url":"https://www.reddit.com/r/AskHistorians/","external":true,"prefetch":null},{"name":"Ask Men","url":"https://www.reddit.com/r/AskMen/","external":true,"prefetch":null},{"name":"Ask Women","url":"https://www.reddit.com/r/AskWomen/","external":true,"prefetch":null},{"name":"Too Afraid To Ask","url":"https://www.reddit.com/r/TooAfraidToAsk/","external":true,"prefetch":null},{"name":"Buzzing","url":"https://www.buzzing.cc/","external":true,"prefetch":null}],"menuLinks":[],"localize":[{"locale":"en","title":"Buzzing on Ask","description":"See what's buzzing on Ask Headline in your native language","social":[{"name":"Reddit","url":"https://www.reddit.com/","external":true,"prefetch":null}],"menuLinks":[{"name":"Weekly Selection","url":"/issues","external":null,"prefetch":null}]},{"locale":"zh-Hant","title":"Reddit 熱門提問","description":"用中文瀏覽 Reddit 上的熱門提問","social":null,"menuLinks":[]}]}},"tagsGroup":{"group":[{"fieldValue":"AskHistorians","totalCount":332},{"fieldValue":"AskMen","totalCount":104},{"fieldValue":"AskReddit","totalCount":686},{"fieldValue":"AskWomen","totalCount":225},{"fieldValue":"Ask_Politics","totalCount":46},{"fieldValue":"NoStupidQuestions","totalCount":312},{"fieldValue":"TooAfraidToAsk","totalCount":225},{"fieldValue":"TrueAskReddit","totalCount":30},{"fieldValue":"askphilosophy","totalCount":58},{"fieldValue":"askscience","totalCount":141},{"fieldValue":"reddit","totalCount":2159}]},"allBlogPost":{"nodes":[{"__typename":"SocialMediaPost","id":"RedditPost-l0ro07","excerpt":"","slug":"/reddit/r/askscience/comments/l0ro07/how_rabies_virus_affect_almost_every_hotblooded/","title":"How rabies virus affect almost every hot-blooded species on Earth while other viruses usually unique for one or few species?","date":"January 19, 2021","dateISO":"2021-01-19T21:47:14.000Z","datetime":"2021-01-19 21:47","tags":["askscience","reddit"],"image":null,"imageAlt":null,"provider":"Reddit","thirdPartyId":"l0ro07","url":"https://www.reddit.com/r/askscience/comments/l0ro07/how_rabies_virus_affect_almost_every_hotblooded/","originalUrl":"https://www.reddit.com/r/askscience/comments/l0ro07/how_rabies_virus_affect_almost_every_hotblooded/","imageRemote":null,"video":null,"channel":"askscience","channelUrl":"https://www.reddit.com/r/askscience","author":"Pazoozu","authorUrl":"https://www.reddit.com/user/Pazoozu","authorImage":null,"authorSlug":"Pazoozu","score":436,"views":null,"sharedCount":null,"likeCount":null,"sharedContent":null,"parent":{"__typename":"RedditJson","localize":[{"title":"为什么狂犬病病毒几乎影响了地球上所有的热血动物，而其他病毒通常只影响一个或几个物种？","the_new_excerpt":null,"locale":"zh"},{"title":"爲什麼狂犬病病毒幾乎影響了地球上所有的熱血動物，而其他病毒通常隻影響一個或幾個物種？","the_new_excerpt":null,"locale":"zh-Hant"}]}},{"__typename":"SocialMediaPost","id":"RedditPost-l03hiq","excerpt":"","slug":"/reddit/r/askscience/comments/l03hiq/does_damage_to_lungs_due_to_covid_improve_over/","title":"Does damage to lungs due to covid improve over time? Does the damage noticeably affect breathing or can it go unnoticed?","date":"January 19, 2021","dateISO":"2021-01-19T14:18:29.000Z","datetime":"2021-01-19 14:18","tags":["askscience","reddit"],"image":null,"imageAlt":null,"provider":"Reddit","thirdPartyId":"l03hiq","url":"https://www.reddit.com/r/askscience/comments/l03hiq/does_damage_to_lungs_due_to_covid_improve_over/","originalUrl":"https://www.reddit.com/r/askscience/comments/l03hiq/does_damage_to_lungs_due_to_covid_improve_over/","imageRemote":null,"video":null,"channel":"askscience","channelUrl":"https://www.reddit.com/r/askscience","author":"peechiecaca","authorUrl":"https://www.reddit.com/user/peechiecaca","authorImage":null,"authorSlug":"peechiecaca","score":110,"views":null,"sharedCount":null,"likeCount":null,"sharedContent":null,"parent":{"__typename":"RedditJson","localize":[{"title":"科维德对肺部的损伤会随着时间的推移而改善吗？损伤是明显影响呼吸还是可以不被察觉？","the_new_excerpt":null,"locale":"zh"},{"title":"科維德對肺部的損傷會隨着時間的推移而改善嗎？損傷是明顯影響呼吸還是可以不被察覺？","the_new_excerpt":null,"locale":"zh-Hant"}]}},{"__typename":"SocialMediaPost","id":"RedditPost-l0cwu0","excerpt":"","slug":"/reddit/r/askscience/comments/l0cwu0/why_do_lysosomes_need_a_low_ph_in_order_to/","title":"Why do lysosomes need a low pH in order to function/degrade proteins?","date":"January 19, 2021","dateISO":"2021-01-19T14:18:29.000Z","datetime":"2021-01-19 14:18","tags":["askscience","reddit"],"image":null,"imageAlt":null,"provider":"Reddit","thirdPartyId":"l0cwu0","url":"https://www.reddit.com/r/askscience/comments/l0cwu0/why_do_lysosomes_need_a_low_ph_in_order_to/","originalUrl":"https://www.reddit.com/r/askscience/comments/l0cwu0/why_do_lysosomes_need_a_low_ph_in_order_to/","imageRemote":null,"video":null,"channel":"askscience","channelUrl":"https://www.reddit.com/r/askscience","author":"inquilinekea","authorUrl":"https://www.reddit.com/user/inquilinekea","authorImage":null,"authorSlug":"inquilinekea","score":263,"views":null,"sharedCount":null,"likeCount":null,"sharedContent":null,"parent":{"__typename":"RedditJson","localize":[{"title":"为什么溶酶体需要低pH值才能发挥作用/降解蛋白质？","the_new_excerpt":null,"locale":"zh"},{"title":"爲什麼溶酶體需要低pH值才能發揮作用/降解蛋白質？","the_new_excerpt":null,"locale":"zh-Hant"}]}},{"__typename":"SocialMediaPost","id":"RedditPost-kzspfp","excerpt":"","slug":"/reddit/r/askscience/comments/kzspfp/with_the_rise_of_covid_deaths_does_that_have_any/","title":"With the rise of covid deaths, does that have any effect on the organ donor list?","date":"January 18, 2021","dateISO":"2021-01-18T18:42:02.000Z","datetime":"2021-01-18 18:42","tags":["askscience","reddit"],"image":null,"imageAlt":null,"provider":"Reddit","thirdPartyId":"kzspfp","url":"https://www.reddit.com/r/askscience/comments/kzspfp/with_the_rise_of_covid_deaths_does_that_have_any/","originalUrl":"https://www.reddit.com/r/askscience/comments/kzspfp/with_the_rise_of_covid_deaths_does_that_have_any/","imageRemote":null,"video":null,"channel":"askscience","channelUrl":"https://www.reddit.com/r/askscience","author":"vegfitchick","authorUrl":"https://www.reddit.com/user/vegfitchick","authorImage":null,"authorSlug":"vegfitchick","score":189,"views":null,"sharedCount":null,"likeCount":null,"sharedContent":null,"parent":{"__typename":"RedditJson","localize":[{"title":"随着科维德死亡人数的增加，这对器官捐献者名单有影响吗？","the_new_excerpt":null,"locale":"zh"},{"title":"隨着科維德死亡人數的增加，這對器官捐獻者名單有影響嗎？","the_new_excerpt":null,"locale":"zh-Hant"}]}},{"__typename":"SocialMediaPost","id":"RedditPost-kzbac3","excerpt":"Apologies if there is a more appropriate sub, was unsure where else to ask.\nBasically as in the title, I understand that RAM is temporary memory with\nconstant store and retrieval times -- but what is so random about it?","slug":"/reddit/r/askscience/comments/kzbac3/what_is_random_about_random_access_memory_ram/","title":"What is random about Random Access Memory (RAM)?","date":"January 17, 2021","dateISO":"2021-01-17T20:59:52.000Z","datetime":"2021-01-17 20:59","tags":["askscience","reddit"],"image":null,"imageAlt":null,"provider":"Reddit","thirdPartyId":"kzbac3","url":"https://www.reddit.com/r/askscience/comments/kzbac3/what_is_random_about_random_access_memory_ram/","originalUrl":"https://www.reddit.com/r/askscience/comments/kzbac3/what_is_random_about_random_access_memory_ram/","imageRemote":null,"video":null,"channel":"askscience","channelUrl":"https://www.reddit.com/r/askscience","author":"wheinz2","authorUrl":"https://www.reddit.com/user/wheinz2","authorImage":null,"authorSlug":"wheinz2","score":116,"views":null,"sharedCount":null,"likeCount":null,"sharedContent":null,"parent":{"__typename":"RedditJson","localize":[{"title":"随机存取存储器（RAM）的随机性是什么？","the_new_excerpt":"如果有更合适的子，很抱歉，不知道还能在哪里问。\n基本上和标题一样，我理解RAM是临时内存，有\n恒定的存储和检索时间--但这有什么好随意的？","locale":"zh"},{"title":"隨機存取存儲器（RAM）的隨機性是什麼？","the_new_excerpt":"如果有更合適的子，很抱歉，不知道還能在哪裏問。\n基本上和標題一樣，我理解RAM是臨時內存，有\n恆定的存儲和檢索時間--但這有什麼好隨意的？","locale":"zh-Hant"}]}},{"__typename":"SocialMediaPost","id":"RedditPost-kyw6h1","excerpt":"Imagine three new substances enter your body. The first is a harmless bit of\nnothing. It enters your body, and just floats around for a while doing nothing.\nYour immune system ignores it. The second is a virus. It invades your cells and\ncauses trouble until the immune system starts producing…","slug":"/reddit/r/askscience/comments/kyw6h1/how_does_your_body_know_to_make_a_new_antibody/","title":"How does your body know to make a new anti-body?","date":"January 17, 2021","dateISO":"2021-01-17T16:15:53.000Z","datetime":"2021-01-17 16:15","tags":["askscience","reddit"],"image":null,"imageAlt":null,"provider":"Reddit","thirdPartyId":"kyw6h1","url":"https://www.reddit.com/r/askscience/comments/kyw6h1/how_does_your_body_know_to_make_a_new_antibody/","originalUrl":"https://www.reddit.com/r/askscience/comments/kyw6h1/how_does_your_body_know_to_make_a_new_antibody/","imageRemote":null,"video":null,"channel":"askscience","channelUrl":"https://www.reddit.com/r/askscience","author":"BobTheAverage","authorUrl":"https://www.reddit.com/user/BobTheAverage","authorImage":null,"authorSlug":"BobTheAverage","score":104,"views":null,"sharedCount":null,"likeCount":null,"sharedContent":null,"parent":{"__typename":"RedditJson","localize":[{"title":"你的身体怎么知道要制造新的抗体？","the_new_excerpt":"想象一下，有三种新的物质进入你的身体。第一种是无害的一点\n什么也不做。它进入你的身体，只是漂浮在周围一段时间什么都不做。\n你的免疫系统会忽略它。第二种是病毒。它侵入你的细胞和\n导致麻烦，直到免疫系统开始产生... ...","locale":"zh"},{"title":"你的身體怎麼知道要製造新的抗體？","the_new_excerpt":"想象一下，有三種新的物質進入你的身體。第一種是無害的一點\n什麼也不做。它進入你的身體，只是漂浮在周圍一段時間什麼都不做。\n你的免疫系統會忽略它。第二種是病毒。它侵入你的細胞和\n導致麻煩，直到免疫系統開始產生... ...","locale":"zh-Hant"}]}},{"__typename":"SocialMediaPost","id":"RedditPost-kyufta","excerpt":"The CDC [https://www.cdc.gov/flu/prevent/vaccine-selection.htm] says:\n\n> Flu viruses are constantly changing, so the vaccine composition is reviewed\n> each year and updated as needed based on which influenza viruses are making\n> people sick, the extent to which those viruses are spreading, and how…","slug":"/reddit/r/askscience/comments/kyufta/how_will_the_flu_vaccine_composition_for_202122/","title":"How will the flu vaccine composition for 2021/22 be determined with fewer flu cases this season?","date":"January 17, 2021","dateISO":"2021-01-17T03:29:59.000Z","datetime":"2021-01-17 03:29","tags":["askscience","reddit"],"image":null,"imageAlt":null,"provider":"Reddit","thirdPartyId":"kyufta","url":"https://www.reddit.com/r/askscience/comments/kyufta/how_will_the_flu_vaccine_composition_for_202122/","originalUrl":"https://www.reddit.com/r/askscience/comments/kyufta/how_will_the_flu_vaccine_composition_for_202122/","imageRemote":null,"video":null,"channel":"askscience","channelUrl":"https://www.reddit.com/r/askscience","author":"never_stop_asking","authorUrl":"https://www.reddit.com/user/never_stop_asking","authorImage":null,"authorSlug":"never_stop_asking","score":566,"views":null,"sharedCount":null,"likeCount":null,"sharedContent":null,"parent":{"__typename":"RedditJson","localize":[{"title":"在本季流感病例减少的情况下，2021/22年的流感疫苗成分如何确定？","the_new_excerpt":"疾控中心[https://www.cdc.gov/flu/prevent/vaccine-selection.htm]表示。\n\n> 流感病毒是不断变化的，所以疫苗的成分也是不断变化的。\n每年>，并根据需要更新，根据哪些流感病毒正在进行。\n> 患病的人，这些病毒传播的程度，以及如何... ...","locale":"zh"},{"title":"在本季流感病例減少的情況下，2021/22年的流感疫苗成分如何確定？","the_new_excerpt":"疾控中心[https://www.cdc.gov/flu/prevent/vaccine-selection.htm]表示。\n\n> 流感病毒是不斷變化的，所以疫苗的成分也是不斷變化的。\n每年>，並根據需要更新，根據哪些流感病毒正在進行。\n> 患病的人，這些病毒傳播的程度，以及如何... ...","locale":"zh-Hant"}]}},{"__typename":"SocialMediaPost","id":"RedditPost-kyhq9s","excerpt":"For example, lets say I've been thrown back in time to 1000 BC. I want to\nintroduce civilization to the wonders of electricity, so the first thing I need\nis a strong magnet. The only sources of ferromagnetic material I know of are\nLodestones, which I understand are only quite weakly magnetic.\n\nSo it…","slug":"/reddit/r/askscience/comments/kyhq9s/how_was_the_first_magnet_created_how_would_i/","title":"How was the first magnet created? How would I create a magnet in absence of electricity or other strong magnets?","date":"January 16, 2021","dateISO":"2021-01-16T22:09:05.000Z","datetime":"2021-01-16 22:09","tags":["askscience","reddit"],"image":null,"imageAlt":null,"provider":"Reddit","thirdPartyId":"kyhq9s","url":"https://www.reddit.com/r/askscience/comments/kyhq9s/how_was_the_first_magnet_created_how_would_i/","originalUrl":"https://www.reddit.com/r/askscience/comments/kyhq9s/how_was_the_first_magnet_created_how_would_i/","imageRemote":null,"video":null,"channel":"askscience","channelUrl":"https://www.reddit.com/r/askscience","author":"Exoddity","authorUrl":"https://www.reddit.com/user/Exoddity","authorImage":null,"authorSlug":"Exoddity","score":108,"views":null,"sharedCount":null,"likeCount":null,"sharedContent":null,"parent":{"__typename":"RedditJson","localize":[{"title":"第一块磁铁是如何产生的？在没有电或其他强磁体的情况下，如何创造磁铁？","the_new_excerpt":"举个例子，比如说我被扔回了公元前1000年。我想\n向文明介绍电的奥妙，所以我首先要做的是\n是一种强磁体。我所知道的铁磁性材料的唯一来源是：\n岩石，我知道它只有很弱的磁性。\n\n所以...","locale":"zh"},{"title":"第一塊磁鐵是如何產生的？在沒有電或其他強磁體的情況下，如何創造磁鐵？","the_new_excerpt":"舉個例子，比如說我被扔回了公元前1000年。我想\n向文明介紹電的奧妙，所以我首先要做的是\n是一種強磁體。我所知道的鐵磁性材料的唯一來源是：\n岩石，我知道它只有很弱的磁性。\n\n所以...","locale":"zh-Hant"}]}},{"__typename":"SocialMediaPost","id":"RedditPost-kxtakp","excerpt":"","slug":"/reddit/r/askscience/comments/kxtakp/what_makes_one_type_of_steel_mechanically/","title":"What makes one type of steel mechanically stronger than another?","date":"January 16, 2021","dateISO":"2021-01-16T11:49:51.000Z","datetime":"2021-01-16 11:49","tags":["askscience","reddit"],"image":null,"imageAlt":null,"provider":"Reddit","thirdPartyId":"kxtakp","url":"https://www.reddit.com/r/askscience/comments/kxtakp/what_makes_one_type_of_steel_mechanically/","originalUrl":"https://www.reddit.com/r/askscience/comments/kxtakp/what_makes_one_type_of_steel_mechanically/","imageRemote":null,"video":null,"channel":"askscience","channelUrl":"https://www.reddit.com/r/askscience","author":"HaloJonez","authorUrl":"https://www.reddit.com/user/HaloJonez","authorImage":null,"authorSlug":"HaloJonez","score":105,"views":null,"sharedCount":null,"likeCount":null,"sharedContent":null,"parent":{"__typename":"RedditJson","localize":[{"title":"是什么使一种钢的机械强度高于另一种钢？","the_new_excerpt":null,"locale":"zh"},{"title":"是什麼使一種鋼的機械強度高於另一種鋼？","the_new_excerpt":null,"locale":"zh-Hant"}]}},{"__typename":"SocialMediaPost","id":"RedditPost-kxu48p","excerpt":"And an optional follow-up question - we have days when we feel focused and\nenergetic and can take on a variety of different tasks, both physical and\nmental, throughout the day but we also have days when we feel like we can't get\nout of bed. What causes this and why do we sometimes \"wake up\" after a…","slug":"/reddit/r/askscience/comments/kxu48p/where_and_how_is_energy_stored_in_the_body/","title":"Where and how is energy stored in the body?","date":"January 16, 2021","dateISO":"2021-01-16T05:00:40.000Z","datetime":"2021-01-16 05:00","tags":["askscience","reddit"],"image":null,"imageAlt":null,"provider":"Reddit","thirdPartyId":"kxu48p","url":"https://www.reddit.com/r/askscience/comments/kxu48p/where_and_how_is_energy_stored_in_the_body/","originalUrl":"https://www.reddit.com/r/askscience/comments/kxu48p/where_and_how_is_energy_stored_in_the_body/","imageRemote":null,"video":null,"channel":"askscience","channelUrl":"https://www.reddit.com/r/askscience","author":"winterchillz","authorUrl":"https://www.reddit.com/user/winterchillz","authorImage":null,"authorSlug":"winterchillz","score":105,"views":null,"sharedCount":null,"likeCount":null,"sharedContent":null,"parent":{"__typename":"RedditJson","localize":[{"title":"人体中的能量储存在哪里，如何储存？","the_new_excerpt":"还有一个可选的后续问题--我们有的时候会觉得自己很专心，而且会觉得自己是个好孩子。\n精力充沛，可以承担各种不同的任务，包括体力和精力。\n精神，一整天，但我们也有几天，当我们觉得我们不能得到的。\n下床。是什么原因造成的，为什么我们有时会在 \"醒来 \"后...","locale":"zh"},{"title":"人體中的能量儲存在哪裏，如何儲存？","the_new_excerpt":"還有一個可選的後續問題--我們有的時候會覺得自己很專心，而且會覺得自己是個好孩子。\n精力充沛，可以承擔各種不同的任務，包括體力和精力。\n精神，一整天，但我們也有幾天，當我們覺得我們不能得到的。\n下牀。是什麼原因造成的，爲什麼我們有時會在 \"醒來 \"後...","locale":"zh-Hant"}]}},{"__typename":"SocialMediaPost","id":"RedditPost-kxubf4","excerpt":"Covid-19 patients can test positive for up to months after being infected but\nthe CDC guidelines state that the virus is most likely not contagious after 10\ndays. How is someone who still has detectable amounts of covid-19 in their nose\nor saliva no longer able to pass it on to someone else?","slug":"/reddit/r/askscience/comments/kxubf4/what_determines_when_a_viral_infection_is_no/","title":"What determines when a viral infection is no longer contagious?","date":"January 16, 2021","dateISO":"2021-01-16T01:48:22.000Z","datetime":"2021-01-16 01:48","tags":["askscience","reddit"],"image":null,"imageAlt":null,"provider":"Reddit","thirdPartyId":"kxubf4","url":"https://www.reddit.com/r/askscience/comments/kxubf4/what_determines_when_a_viral_infection_is_no/","originalUrl":"https://www.reddit.com/r/askscience/comments/kxubf4/what_determines_when_a_viral_infection_is_no/","imageRemote":null,"video":null,"channel":"askscience","channelUrl":"https://www.reddit.com/r/askscience","author":"zaroach","authorUrl":"https://www.reddit.com/user/zaroach","authorImage":null,"authorSlug":"zaroach","score":213,"views":null,"sharedCount":null,"likeCount":null,"sharedContent":null,"parent":{"__typename":"RedditJson","localize":[{"title":"什么决定了病毒感染不再具有传染性？","the_new_excerpt":"Covid-19患者在被感染后的几个月内都可以检测出阳性，但。\n疾病预防控制中心的指导方针指出，病毒很可能在10岁以后就没有传染性了。\n天。怎么会有人在鼻子里还能检测到大量的covid-19呢？\n或唾液已不能传给别人？","locale":"zh"},{"title":"什麼決定了病毒感染不再具有傳染性？","the_new_excerpt":"Covid-19患者在被感染後的幾個月內都可以檢測出陽性，但。\n疾病預防控制中心的指導方針指出，病毒很可能在10歲以後就沒有傳染性了。\n天。怎麼會有人在鼻子裏還能檢測到大量的covid-19呢？\n或唾液已不能傳給別人？","locale":"zh-Hant"}]}},{"__typename":"SocialMediaPost","id":"RedditPost-ky7wlq","excerpt":"","slug":"/reddit/r/askscience/comments/ky7wlq/what_does_the_data_for_covid_show_regarding/","title":"What does the data for covid show regarding transmittablity outdoors as opposed to indoors?","date":"January 16, 2021","dateISO":"2021-01-16T01:48:22.000Z","datetime":"2021-01-16 01:48","tags":["askscience","reddit"],"image":null,"imageAlt":null,"provider":"Reddit","thirdPartyId":"ky7wlq","url":"https://www.reddit.com/r/askscience/comments/ky7wlq/what_does_the_data_for_covid_show_regarding/","originalUrl":"https://www.reddit.com/r/askscience/comments/ky7wlq/what_does_the_data_for_covid_show_regarding/","imageRemote":null,"video":null,"channel":"askscience","channelUrl":"https://www.reddit.com/r/askscience","author":"Buy_More_Bitcoin","authorUrl":"https://www.reddit.com/user/Buy_More_Bitcoin","authorImage":null,"authorSlug":"Buy_More_Bitcoin","score":3495,"views":null,"sharedCount":null,"likeCount":null,"sharedContent":null,"parent":{"__typename":"RedditJson","localize":[{"title":"covid的数据显示，室外与室内的透射性有什么不同？","the_new_excerpt":null,"locale":"zh"},{"title":"covid的數據顯示，室外與室內的透射性有什麼不同？","the_new_excerpt":null,"locale":"zh-Hant"}]}},{"__typename":"SocialMediaPost","id":"RedditPost-kxk8a0","excerpt":"","slug":"/reddit/r/askscience/comments/kxk8a0/a_team_from_the_who_is_currently_in_china_looking/","title":"A team from the WHO is currently in China looking for the origins of SARS-CoV-2. How do you look for the source of a virus?","date":"January 15, 2021","dateISO":"2021-01-15T18:27:31.000Z","datetime":"2021-01-15 18:27","tags":["askscience","reddit"],"image":null,"imageAlt":null,"provider":"Reddit","thirdPartyId":"kxk8a0","url":"https://www.reddit.com/r/askscience/comments/kxk8a0/a_team_from_the_who_is_currently_in_china_looking/","originalUrl":"https://www.reddit.com/r/askscience/comments/kxk8a0/a_team_from_the_who_is_currently_in_china_looking/","imageRemote":null,"video":null,"channel":"askscience","channelUrl":"https://www.reddit.com/r/askscience","author":"RevolutionaryRough37","authorUrl":"https://www.reddit.com/user/RevolutionaryRough37","authorImage":null,"authorSlug":"RevolutionaryRough37","score":107,"views":null,"sharedCount":null,"likeCount":null,"sharedContent":null,"parent":{"__typename":"RedditJson","localize":[{"title":"目前，世界卫生组织的一个小组正在中国寻找SARS-CoV-2的来源。如何寻找病毒的来源？","the_new_excerpt":null,"locale":"zh"},{"title":"目前，世界衛生組織的一個小組正在中國尋找SARS-CoV-2的來源。如何尋找病毒的來源？","the_new_excerpt":null,"locale":"zh-Hant"}]}},{"__typename":"SocialMediaPost","id":"RedditPost-kxgyut","excerpt":"","slug":"/reddit/r/askscience/comments/kxgyut/about_how_many_gallons_of_water_is_evaporated_on/","title":"About how many gallons of water is evaporated on average per day in one square mile of the ocean?","date":"January 15, 2021","dateISO":"2021-01-15T03:31:05.000Z","datetime":"2021-01-15 03:31","tags":["askscience","reddit"],"image":null,"imageAlt":null,"provider":"Reddit","thirdPartyId":"kxgyut","url":"https://www.reddit.com/r/askscience/comments/kxgyut/about_how_many_gallons_of_water_is_evaporated_on/","originalUrl":"https://www.reddit.com/r/askscience/comments/kxgyut/about_how_many_gallons_of_water_is_evaporated_on/","imageRemote":null,"video":null,"channel":"askscience","channelUrl":"https://www.reddit.com/r/askscience","author":"0gammaray0","authorUrl":"https://www.reddit.com/user/0gammaray0","authorImage":null,"authorSlug":"0gammaray0","score":268,"views":null,"sharedCount":null,"likeCount":null,"sharedContent":null,"parent":{"__typename":"RedditJson","localize":[{"title":"在一平方英里的海洋中，平均每天要蒸发多少加仑的水？","the_new_excerpt":null,"locale":"zh"},{"title":"在一平方英里的海洋中，平均每天要蒸發多少加侖的水？","the_new_excerpt":null,"locale":"zh-Hant"}]}},{"__typename":"SocialMediaPost","id":"RedditPost-kwrdg2","excerpt":"","slug":"/reddit/r/askscience/comments/kwrdg2/is_sound_bound_by_gravity_is_screaming_upwards/","title":"Is sound, bound by gravity? Is screaming upwards any different than sceaming downwards, speed or volume-wise?","date":"January 14, 2021","dateISO":"2021-01-14T22:10:03.000Z","datetime":"2021-01-14 22:10","tags":["askscience","reddit"],"image":null,"imageAlt":null,"provider":"Reddit","thirdPartyId":"kwrdg2","url":"https://www.reddit.com/r/askscience/comments/kwrdg2/is_sound_bound_by_gravity_is_screaming_upwards/","originalUrl":"https://www.reddit.com/r/askscience/comments/kwrdg2/is_sound_bound_by_gravity_is_screaming_upwards/","imageRemote":null,"video":null,"channel":"askscience","channelUrl":"https://www.reddit.com/r/askscience","author":"Anospam","authorUrl":"https://www.reddit.com/user/Anospam","authorImage":null,"authorSlug":"Anospam","score":316,"views":null,"sharedCount":null,"likeCount":null,"sharedContent":null,"parent":{"__typename":"RedditJson","localize":[{"title":"声音，是被重力束缚的吗？向上尖叫和向下尖叫，速度和体积上有什么不同吗？","the_new_excerpt":null,"locale":"zh"},{"title":"聲音，是被重力束縛的嗎？向上尖叫和向下尖叫，速度和體積上有什麼不同嗎？","the_new_excerpt":null,"locale":"zh-Hant"}]}},{"__typename":"SocialMediaPost","id":"RedditPost-kx03q7","excerpt":"","slug":"/reddit/r/askscience/comments/kx03q7/do_animals_that_sleep_in_multiple_short_naps_such/","title":"Do animals that sleep in multiple short \"naps\" (such as cats) require REM sleep the way humans do?","date":"January 14, 2021","dateISO":"2021-01-14T22:10:03.000Z","datetime":"2021-01-14 22:10","tags":["askscience","reddit"],"image":null,"imageAlt":null,"provider":"Reddit","thirdPartyId":"kx03q7","url":"https://www.reddit.com/r/askscience/comments/kx03q7/do_animals_that_sleep_in_multiple_short_naps_such/","originalUrl":"https://www.reddit.com/r/askscience/comments/kx03q7/do_animals_that_sleep_in_multiple_short_naps_such/","imageRemote":null,"video":null,"channel":"askscience","channelUrl":"https://www.reddit.com/r/askscience","author":"flaminstraight","authorUrl":"https://www.reddit.com/user/flaminstraight","authorImage":null,"authorSlug":"flaminstraight","score":6463,"views":null,"sharedCount":null,"likeCount":null,"sharedContent":null,"parent":{"__typename":"RedditJson","localize":[{"title":"多次短暂 \"小睡 \"的动物（如猫）是否也像人类一样需要REM睡眠？","the_new_excerpt":null,"locale":"zh"},{"title":"多次短暫 \"小睡 \"的動物（如貓）是否也像人類一樣需要REM睡眠？","the_new_excerpt":null,"locale":"zh-Hant"}]}}]}},"pageContext":{"basePath":"/","pageType":"tag","tag":"askscience","tagsFilter":{"id":{"glob":"!*Post-1"}},"filter":{"id":{"glob":"!*Post-1"},"tags":{"eq":"askscience"}},"limit":25,"skip":125,"total":141,"totalPages":6,"currentPage":6,"maxWidth":1024,"maxHeight":512,"locale":"zh","hrefLang":"zh-Hans","originalPath":"/tags/askscience/page/6","dateFormat":"YYYY-MM-DD"}},"staticQueryHashes":["1239077767","2506312863","2744905544","3025052997","3493603132","3493603132","3513215887","386998304"]}