{"componentChunkName":"component---node-modules-gatsby-theme-buzzing-src-gatsby-theme-timeline-templates-posts-query-js","path":"/zh-Hant/tags/ask-men/page/5","result":{"data":{"site":{"siteMetadata":{"title":"Reddit 热门提问","description":"用中文浏览 Reddit 上的热门提问","social":[{"name":"Ask Reddit","url":"https://www.reddit.com/r/AskReddit/","external":true,"prefetch":null},{"name":"Ask Politics","url":"https://www.reddit.com/r/Ask_Politics/","external":true,"prefetch":null},{"name":"Ask Historians","url":"https://www.reddit.com/r/AskHistorians/","external":true,"prefetch":null},{"name":"Ask Men","url":"https://www.reddit.com/r/AskMen/","external":true,"prefetch":null},{"name":"Ask Women","url":"https://www.reddit.com/r/AskWomen/","external":true,"prefetch":null},{"name":"Too Afraid To Ask","url":"https://www.reddit.com/r/TooAfraidToAsk/","external":true,"prefetch":null},{"name":"Buzzing","url":"https://www.buzzing.cc/","external":true,"prefetch":null}],"menuLinks":[],"localize":[{"locale":"en","title":"Buzzing on Ask","description":"See what's buzzing on Ask Headline in your native language","social":[{"name":"Reddit","url":"https://www.reddit.com/","external":true,"prefetch":null}],"menuLinks":[{"name":"Weekly Selection","url":"/issues","external":null,"prefetch":null}]},{"locale":"zh-Hant","title":"Reddit 熱門提問","description":"用中文瀏覽 Reddit 上的熱門提問","social":null,"menuLinks":[]}]}},"tagsGroup":{"group":[{"fieldValue":"AskHistorians","totalCount":332},{"fieldValue":"AskMen","totalCount":104},{"fieldValue":"AskReddit","totalCount":686},{"fieldValue":"AskWomen","totalCount":225},{"fieldValue":"Ask_Politics","totalCount":46},{"fieldValue":"NoStupidQuestions","totalCount":312},{"fieldValue":"TooAfraidToAsk","totalCount":225},{"fieldValue":"TrueAskReddit","totalCount":30},{"fieldValue":"askphilosophy","totalCount":58},{"fieldValue":"askscience","totalCount":141},{"fieldValue":"reddit","totalCount":2159}]},"allBlogPost":{"nodes":[{"__typename":"SocialMediaPost","id":"RedditPost-kx0jgx","excerpt":"(F) Trying to do something in a few days","slug":"/reddit/r/AskMen/comments/kx0jgx/how_do_you_react_when_a_girl_remembers_a_small/","title":"How do you react when a girl remembers a small thing about you?","date":"January 14, 2021","dateISO":"2021-01-14T20:17:39.000Z","datetime":"2021-01-14 20:17","tags":["AskMen","reddit"],"image":null,"imageAlt":null,"provider":"Reddit","thirdPartyId":"kx0jgx","url":"https://www.reddit.com/r/AskMen/comments/kx0jgx/how_do_you_react_when_a_girl_remembers_a_small/","originalUrl":"https://www.reddit.com/r/AskMen/comments/kx0jgx/how_do_you_react_when_a_girl_remembers_a_small/","imageRemote":null,"video":null,"channel":"AskMen","channelUrl":"https://www.reddit.com/r/AskMen","author":"pancakeslover07","authorUrl":"https://www.reddit.com/user/pancakeslover07","authorImage":null,"authorSlug":"pancakeslover07","score":105,"views":null,"sharedCount":null,"likeCount":null,"sharedContent":null,"parent":{"__typename":"RedditJson","localize":[{"title":"当一个女生想起你的一件小事时，你会有什么反应？","the_new_excerpt":"六）争取在几天内办成一件事","locale":"zh"},{"title":"當一個女生想起你的一件小事時，你會有什麼反應？","the_new_excerpt":"六）爭取在幾天內辦成一件事","locale":"zh-Hant"}]}},{"__typename":"SocialMediaPost","id":"RedditPost-kwontd","excerpt":"","slug":"/reddit/r/AskMen/comments/kwontd/if_you_were_worth_50million_and_had_kids_what/","title":"If you were worth $50million and had kids, what would you do to try and prevent them from becoming spoiled, entitled, rich snobs?","date":"January 14, 2021","dateISO":"2021-01-14T16:41:41.000Z","datetime":"2021-01-14 16:41","tags":["AskMen","reddit"],"image":null,"imageAlt":null,"provider":"Reddit","thirdPartyId":"kwontd","url":"https://www.reddit.com/r/AskMen/comments/kwontd/if_you_were_worth_50million_and_had_kids_what/","originalUrl":"https://www.reddit.com/r/AskMen/comments/kwontd/if_you_were_worth_50million_and_had_kids_what/","imageRemote":null,"video":null,"channel":"AskMen","channelUrl":"https://www.reddit.com/r/AskMen","author":"DiscountVoodoo","authorUrl":"https://www.reddit.com/user/DiscountVoodoo","authorImage":null,"authorSlug":"DiscountVoodoo","score":115,"views":null,"sharedCount":null,"likeCount":null,"sharedContent":null,"parent":{"__typename":"RedditJson","localize":[{"title":"如果你身价5000万美元，有了孩子，你会怎么做，以防止他们成为被宠坏的，有权的，有钱的势利小人？","the_new_excerpt":null,"locale":"zh"},{"title":"如果你身價5000萬美元，有了孩子，你會怎麼做，以防止他們成爲被寵壞的，有權的，有錢的勢利小人？","the_new_excerpt":null,"locale":"zh-Hant"}]}},{"__typename":"SocialMediaPost","id":"RedditPost-kwx1ox","excerpt":"Mine would be that my dad used to tell me that men with receding hairlines were\nsmarter than those that didn't have them, the reason being that whenever men\nwould do math, they'd move their hand from their forehead to the back of their\nhead (easier to understand if you slide your hand from the front…","slug":"/reddit/r/AskMen/comments/kwx1ox/what_a_lie_you_were_told_as_a_kid_about/","title":"What a \"lie\" you were told as a kid about masculinity that isn't true?","date":"January 14, 2021","dateISO":"2021-01-14T16:41:41.000Z","datetime":"2021-01-14 16:41","tags":["AskMen","reddit"],"image":null,"imageAlt":null,"provider":"Reddit","thirdPartyId":"kwx1ox","url":"https://www.reddit.com/r/AskMen/comments/kwx1ox/what_a_lie_you_were_told_as_a_kid_about/","originalUrl":"https://www.reddit.com/r/AskMen/comments/kwx1ox/what_a_lie_you_were_told_as_a_kid_about/","imageRemote":null,"video":null,"channel":"AskMen","channelUrl":"https://www.reddit.com/r/AskMen","author":"glazerspoon","authorUrl":"https://www.reddit.com/user/glazerspoon","authorImage":null,"authorSlug":"glazerspoon","score":103,"views":null,"sharedCount":null,"likeCount":null,"sharedContent":null,"parent":{"__typename":"RedditJson","localize":[{"title":"小时候告诉你的关于男性气质的 \"谎言 \"不是真的？","the_new_excerpt":"我的是，我的爸爸曾经告诉我，男人的发际线退缩是\n比那些没有他们的人更聪明，原因是每当男性\n会做数学，他们会移动他们的手 从他们的前额到他们的后背。\n头（如果你的手从前面滑动，就更容易理解......）。","locale":"zh"},{"title":"小時候告訴你的關於男性氣質的 \"謊言 \"不是真的？","the_new_excerpt":"我的是，我的爸爸曾經告訴我，男人的髮際線退縮是\n比那些沒有他們的人更聰明，原因是每當男性\n會做數學，他們會移動他們的手 從他們的前額到他們的後背。\n頭（如果你的手從前面滑動，就更容易理解......）。","locale":"zh-Hant"}]}},{"__typename":"SocialMediaPost","id":"RedditPost-kx213n","excerpt":"I was always taught from a young age to shake after having a pee but this\nliterally flicks pee everywhere.\n\nI have always taken off a sheet of toilet roll and wiped it, i am nearly 30 and\nwould like to know how other grown men either wipe or shake.","slug":"/reddit/r/AskMen/comments/kx213n/men_how_do_you_clean_your_penis_after_having_a_wee/","title":"Men, how do you clean your penis after having a wee?","date":"January 14, 2021","dateISO":"2021-01-14T16:41:41.000Z","datetime":"2021-01-14 16:41","tags":["AskMen","reddit"],"image":null,"imageAlt":null,"provider":"Reddit","thirdPartyId":"kx213n","url":"https://www.reddit.com/r/AskMen/comments/kx213n/men_how_do_you_clean_your_penis_after_having_a_wee/","originalUrl":"https://www.reddit.com/r/AskMen/comments/kx213n/men_how_do_you_clean_your_penis_after_having_a_wee/","imageRemote":null,"video":null,"channel":"AskMen","channelUrl":"https://www.reddit.com/r/AskMen","author":"probably420stoned","authorUrl":"https://www.reddit.com/user/probably420stoned","authorImage":null,"authorSlug":"probably420stoned","score":322,"views":null,"sharedCount":null,"likeCount":null,"sharedContent":null,"parent":{"__typename":"RedditJson","localize":[{"title":"男人，小便后如何清洗阴茎？","the_new_excerpt":"我从小到大都被教育要在小便后摇晃，但这个\n从字面上看，到处都是小便。\n\n我总是脱下一张卫生卷纸，擦拭它，我是近30和\n想知道其他成年男人是怎么擦拭或摇晃的。","locale":"zh"},{"title":"男人，小便後如何清洗陰莖？","the_new_excerpt":"我從小到大都被教育要在小便後搖晃，但這個\n從字面上看，到處都是小便。\n\n我總是脫下一張衛生捲紙，擦拭它，我是近30和\n想知道其他成年男人是怎麼擦拭或搖晃的。","locale":"zh-Hant"}]}}]}},"pageContext":{"basePath":"/","pageType":"tag","tag":"AskMen","tagsFilter":{"id":{"glob":"!*Post-1"}},"filter":{"id":{"glob":"!*Post-1"},"tags":{"eq":"AskMen"}},"limit":25,"skip":100,"total":104,"totalPages":5,"currentPage":5,"maxWidth":1024,"maxHeight":512,"locale":"zh-Hant","hrefLang":"zh-Hant","originalPath":"/tags/ask-men/page/5","dateFormat":"YYYY-MM-DD"}},"staticQueryHashes":["1239077767","2506312863","2744905544","3025052997","3493603132","3493603132","3513215887","386998304"]}