{"componentChunkName":"component---node-modules-gatsby-theme-buzzing-src-gatsby-theme-timeline-templates-posts-query-js","path":"/en/tags/ask-historians/page/14","result":{"data":{"site":{"siteMetadata":{"title":"Reddit 热门提问","description":"用中文浏览 Reddit 上的热门提问","social":[{"name":"Ask Reddit","url":"https://www.reddit.com/r/AskReddit/","external":true,"prefetch":null},{"name":"Ask Politics","url":"https://www.reddit.com/r/Ask_Politics/","external":true,"prefetch":null},{"name":"Ask Historians","url":"https://www.reddit.com/r/AskHistorians/","external":true,"prefetch":null},{"name":"Ask Men","url":"https://www.reddit.com/r/AskMen/","external":true,"prefetch":null},{"name":"Ask Women","url":"https://www.reddit.com/r/AskWomen/","external":true,"prefetch":null},{"name":"Too Afraid To Ask","url":"https://www.reddit.com/r/TooAfraidToAsk/","external":true,"prefetch":null},{"name":"Buzzing","url":"https://www.buzzing.cc/","external":true,"prefetch":null}],"menuLinks":[],"localize":[{"locale":"en","title":"Buzzing on Ask","description":"See what's buzzing on Ask Headline in your native language","social":[{"name":"Reddit","url":"https://www.reddit.com/","external":true,"prefetch":null}],"menuLinks":[{"name":"Weekly Selection","url":"/issues","external":null,"prefetch":null}]},{"locale":"zh-Hant","title":"Reddit 熱門提問","description":"用中文瀏覽 Reddit 上的熱門提問","social":null,"menuLinks":[]}]}},"tagsGroup":{"group":[{"fieldValue":"AskHistorians","totalCount":332},{"fieldValue":"AskMen","totalCount":104},{"fieldValue":"AskReddit","totalCount":686},{"fieldValue":"AskWomen","totalCount":225},{"fieldValue":"Ask_Politics","totalCount":46},{"fieldValue":"NoStupidQuestions","totalCount":312},{"fieldValue":"TooAfraidToAsk","totalCount":225},{"fieldValue":"TrueAskReddit","totalCount":30},{"fieldValue":"askphilosophy","totalCount":58},{"fieldValue":"askscience","totalCount":141},{"fieldValue":"reddit","totalCount":2159}]},"allBlogPost":{"nodes":[{"__typename":"SocialMediaPost","id":"RedditPost-kxv2ig","excerpt":"2020 is in the rear view mirror, and I think few are sad to see it go, but the\nyear wasn't a total wash! We saw hundreds upon hundreds of amazing answers\nwritten on the subreddit, not to mention the multitude of insightful questions\nasked. All of them are worthy of recognition, as it is the…","slug":"/reddit/r/AskHistorians/comments/kxv2ig/here_they_are_the_winners_of_the_best_of/","title":"Here They Are, The Winners of the 'Best of AskHistorians 2020' Contest!","date":"January 15, 2021","dateISO":"2021-01-15T15:58:50.000Z","datetime":"2021-01-15 15:58","tags":["AskHistorians","reddit"],"image":null,"imageAlt":null,"provider":"Reddit","thirdPartyId":"kxv2ig","url":"https://www.reddit.com/r/AskHistorians/comments/kxv2ig/here_they_are_the_winners_of_the_best_of/","originalUrl":"https://www.reddit.com/r/AskHistorians/comments/kxv2ig/here_they_are_the_winners_of_the_best_of/","imageRemote":null,"video":null,"channel":"AskHistorians","channelUrl":"https://www.reddit.com/r/AskHistorians","author":"Georgy_K_Zhukov","authorUrl":"https://www.reddit.com/user/Georgy_K_Zhukov","authorImage":null,"authorSlug":"Georgy_K_Zhukov","score":2914,"views":null,"sharedCount":null,"likeCount":null,"sharedContent":null,"parent":{"__typename":"RedditJson","localize":[{"title":"他们来了，\"AskHistorians 2020 \"大赛的获奖者们!","the_new_excerpt":"2020年已是后知后觉，我想很少有人对它的离去感到惋惜，但。\n这一年并不是一帆风顺的！我们看到了数以百计的惊人答案。我们看到了数以百计的惊人答案\n写在subreddit上，更不用说众多有见地的问题了。\n问。都是值得肯定的，因为这是...","locale":"zh"},{"title":"他們來了，\"AskHistorians 2020 \"大賽的獲獎者們!","the_new_excerpt":"2020年已是後知後覺，我想很少有人對它的離去感到惋惜，但。\n這一年並不是一帆風順的！我們看到了數以百計的驚人答案。我們看到了數以百計的驚人答案\n寫在subreddit上，更不用說衆多有見地的問題了。\n問。都是值得肯定的，因爲這是...","locale":"zh-Hant"}]}},{"__typename":"SocialMediaPost","id":"RedditPost-kxlbep","excerpt":"You can see the scene in question here\n[https://www.youtube.com/watch?v=2rha-6qG4OQ]. I also found this Snopes article\n[https://www.snopes.com/fact-check/swimming-pool-wonderful-life/] which shows\nthat the pool they used to film the scene still exists at Beverly Hills High\nSchool in California. My…","slug":"/reddit/r/AskHistorians/comments/kxlbep/in_the_movie_its_a_wonderful_life_theres_a_scene/","title":"In the movie It's a Wonderful Life, there's a scene with a basketball court that retracts over a swimming pool. Was this a common thing that existed back in the 1940s? Did schools really have the budget for fancy pools like it?","date":"January 15, 2021","dateISO":"2021-01-15T07:03:35.000Z","datetime":"2021-01-15 07:03","tags":["AskHistorians","reddit"],"image":null,"imageAlt":null,"provider":"Reddit","thirdPartyId":"kxlbep","url":"https://www.reddit.com/r/AskHistorians/comments/kxlbep/in_the_movie_its_a_wonderful_life_theres_a_scene/","originalUrl":"https://www.reddit.com/r/AskHistorians/comments/kxlbep/in_the_movie_its_a_wonderful_life_theres_a_scene/","imageRemote":null,"video":null,"channel":"AskHistorians","channelUrl":"https://www.reddit.com/r/AskHistorians","author":"KingEuronIIIGreyjoy","authorUrl":"https://www.reddit.com/user/KingEuronIIIGreyjoy","authorImage":null,"authorSlug":"KingEuronIIIGreyjoy","score":116,"views":null,"sharedCount":null,"likeCount":null,"sharedContent":null,"parent":{"__typename":"RedditJson","localize":[{"title":"在电影《美好生活》中，有一个场景是篮球场，可以在游泳池上伸缩。这在上世纪40年代是普遍存在的事情吗？学校真的有预算来建造这样的高级游泳池吗？","the_new_excerpt":"你可以在这里看到有关的场景\n[https://www.youtube.com/watch?v=2rha-6qG4OQ]。我还发现Snopes的这篇文章\n[https://www.snopes.com/fact-check/swimming-pool-wonderful-life/]其中显示\n他们用来拍摄这一幕的池子仍然存在于比佛利山庄高中。\n在加州的学校。我的...","locale":"zh"},{"title":"在電影《美好生活》中，有一個場景是籃球場，可以在游泳池上伸縮。這在上世紀40年代是普遍存在的事情嗎？學校真的有預算來建造這樣的高級游泳池嗎？","the_new_excerpt":"你可以在這裏看到有關的場景\n[https://www.youtube.com/watch?v=2rha-6qG4OQ]。我還發現Snopes的這篇文章\n[https://www.snopes.com/fact-check/swimming-pool-wonderful-life/]其中顯示\n他們用來拍攝這一幕的池子仍然存在於比佛利山莊高中。\n在加州的學校。我的...","locale":"zh-Hant"}]}},{"__typename":"SocialMediaPost","id":"RedditPost-kx6rcl","excerpt":"","slug":"/reddit/r/AskHistorians/comments/kx6rcl/did_colonial_australians_consider_themselves/","title":"Did colonial Australians consider themselves English? When did the “Australian Identity” become common?","date":"January 14, 2021","dateISO":"2021-01-14T19:36:02.000Z","datetime":"2021-01-14 19:36","tags":["AskHistorians","reddit"],"image":null,"imageAlt":null,"provider":"Reddit","thirdPartyId":"kx6rcl","url":"https://www.reddit.com/r/AskHistorians/comments/kx6rcl/did_colonial_australians_consider_themselves/","originalUrl":"https://www.reddit.com/r/AskHistorians/comments/kx6rcl/did_colonial_australians_consider_themselves/","imageRemote":null,"video":null,"channel":"AskHistorians","channelUrl":"https://www.reddit.com/r/AskHistorians","author":"TimTomStew","authorUrl":"https://www.reddit.com/user/TimTomStew","authorImage":null,"authorSlug":"TimTomStew","score":103,"views":null,"sharedCount":null,"likeCount":null,"sharedContent":null,"parent":{"__typename":"RedditJson","localize":[{"title":"殖民时期的澳大利亚人认为自己是英国人吗？\"澳大利亚人身份 \"何时变得普遍？","the_new_excerpt":null,"locale":"zh"},{"title":"殖民時期的澳大利亞人認爲自己是英國人嗎？\"澳大利亞人身份 \"何時變得普遍？","the_new_excerpt":null,"locale":"zh-Hant"}]}},{"__typename":"SocialMediaPost","id":"RedditPost-kwwa5g","excerpt":"I realized that in reading this info about Aztec dream magic and how assassins\nused it to hurt others, I had no idea where exactly these Naguals existed in\nterms of their religious ideas. Was this dream world one of the 13 heavens or\nthe 9 hells? If not that, was it an entirely different plane of…","slug":"/reddit/r/AskHistorians/comments/kwwa5g/the_aztecs_believed_that_part_of_your_soul_left/","title":"The Aztecs believed that part of your soul left your body when you slept, and existed in the dream world as a Nagual, if that Nagual got hurt you would be hurt in real life. Where exactly did this soul go during sleep? Where did this dream world exist within their religion? One of the 13 heavens?","date":"January 14, 2021","dateISO":"2021-01-14T17:19:50.000Z","datetime":"2021-01-14 17:19","tags":["AskHistorians","reddit"],"image":null,"imageAlt":null,"provider":"Reddit","thirdPartyId":"kwwa5g","url":"https://www.reddit.com/r/AskHistorians/comments/kwwa5g/the_aztecs_believed_that_part_of_your_soul_left/","originalUrl":"https://www.reddit.com/r/AskHistorians/comments/kwwa5g/the_aztecs_believed_that_part_of_your_soul_left/","imageRemote":null,"video":null,"channel":"AskHistorians","channelUrl":"https://www.reddit.com/r/AskHistorians","author":"Chicano_Ducky","authorUrl":"https://www.reddit.com/user/Chicano_Ducky","authorImage":null,"authorSlug":"Chicano_Ducky","score":108,"views":null,"sharedCount":null,"likeCount":null,"sharedContent":null,"parent":{"__typename":"RedditJson","localize":[{"title":"阿兹特克人相信，当你睡觉的时候，你的一部分灵魂离开了你的身体，作为一个Nagual存在于梦境中，如果这个Nagual受到了伤害，你就会在现实生活中受到伤害。这个灵魂在睡眠中到底去了哪里？在他们的宗教中，这个梦境世界存在于哪里？十三重天之一？","the_new_excerpt":"我意识到，在阅读这些信息关于阿兹特克梦境魔法和刺客如何。\n用它来伤害别人，我不知道这些长老们到底存在于哪里，在。\n在他们的宗教观念方面。这个梦境是十三重天中的一个还是\n九重地狱？如果不是这样，那是不是一个完全不同层面的... ...","locale":"zh"},{"title":"阿茲特克人相信，當你睡覺的時候，你的一部分靈魂離開了你的身體，作爲一個Nagual存在於夢境中，如果這個Nagual受到了傷害，你就會在現實生活中受到傷害。這個靈魂在睡眠中到底去了哪裏？在他們的宗教中，這個夢境世界存在於哪裏？十三重天之一？","the_new_excerpt":"我意識到，在閱讀這些信息關於阿茲特克夢境魔法和刺客如何。\n用它來傷害別人，我不知道這些長老們到底存在於哪裏，在。\n在他們的宗教觀念方面。這個夢境是十三重天中的一個還是\n九重地獄？如果不是這樣，那是不是一個完全不同層面的... ...","locale":"zh-Hant"}]}},{"__typename":"SocialMediaPost","id":"RedditPost-kx79k4","excerpt":"","slug":"/reddit/r/AskHistorians/comments/kx79k4/i_am_your_average_medieval_peasant_raised_to_form/","title":"I am your average medieval peasant raised to form a levy for our local lord. In a battle far away I get somewhat severely wounded and even though I will surely survive my wounds I won't be able to walk on my own for several weeks. Who is responsible to take me back home?","date":"January 14, 2021","dateISO":"2021-01-14T17:19:50.000Z","datetime":"2021-01-14 17:19","tags":["AskHistorians","reddit"],"image":null,"imageAlt":null,"provider":"Reddit","thirdPartyId":"kx79k4","url":"https://www.reddit.com/r/AskHistorians/comments/kx79k4/i_am_your_average_medieval_peasant_raised_to_form/","originalUrl":"https://www.reddit.com/r/AskHistorians/comments/kx79k4/i_am_your_average_medieval_peasant_raised_to_form/","imageRemote":null,"video":null,"channel":"AskHistorians","channelUrl":"https://www.reddit.com/r/AskHistorians","author":"Solfosc","authorUrl":"https://www.reddit.com/user/Solfosc","authorImage":null,"authorSlug":"Solfosc","score":314,"views":null,"sharedCount":null,"likeCount":null,"sharedContent":null,"parent":{"__typename":"RedditJson","localize":[{"title":"我是一个普通的中世纪农民，为我们当地的领主征收税款。在一场遥远的战斗中，我受了点重伤，虽然我一定能从伤痛中活下来，但几个星期内我都不能自己走路。谁来负责接我回家？","the_new_excerpt":null,"locale":"zh"},{"title":"我是一個普通的中世紀農民，爲我們當地的領主徵收稅款。在一場遙遠的戰鬥中，我受了點重傷，雖然我一定能從傷痛中活下來，但幾個星期內我都不能自己走路。誰來負責接我回家？","the_new_excerpt":null,"locale":"zh-Hant"}]}},{"__typename":"SocialMediaPost","id":"RedditPost-kwovs0","excerpt":"","slug":"/reddit/r/AskHistorians/comments/kwovs0/some_historians_talk_about_the_rise_of_the_nation/","title":"Some historians talk about the \"rise of the nation state\" in the 16th-17th century, but what elements made these states different from previous states?","date":"January 14, 2021","dateISO":"2021-01-14T16:41:41.000Z","datetime":"2021-01-14 16:41","tags":["AskHistorians","reddit"],"image":null,"imageAlt":null,"provider":"Reddit","thirdPartyId":"kwovs0","url":"https://www.reddit.com/r/AskHistorians/comments/kwovs0/some_historians_talk_about_the_rise_of_the_nation/","originalUrl":"https://www.reddit.com/r/AskHistorians/comments/kwovs0/some_historians_talk_about_the_rise_of_the_nation/","imageRemote":null,"video":null,"channel":"AskHistorians","channelUrl":"https://www.reddit.com/r/AskHistorians","author":"insertphilosophyhere","authorUrl":"https://www.reddit.com/user/insertphilosophyhere","authorImage":null,"authorSlug":"insertphilosophyhere","score":301,"views":null,"sharedCount":null,"likeCount":null,"sharedContent":null,"parent":{"__typename":"RedditJson","localize":[{"title":"一些历史学家谈到16-17世纪 \"民族国家的兴起\"，但是什么因素使这些国家与以前的国家不同？","the_new_excerpt":null,"locale":"zh"},{"title":"一些歷史學家談到16-17世紀 \"民族國家的興起\"，但是什麼因素使這些國家與以前的國家不同？","the_new_excerpt":null,"locale":"zh-Hant"}]}},{"__typename":"SocialMediaPost","id":"RedditPost-kwq1x4","excerpt":"The Beer Hall Putsch in November 1923 seems pretty serious. It failed and Hitler\nwas eventually arrested and charged with high treason, but only given a 5 year\nsentence. While in prison he authored the first part of Mein Kampf and grew in\npopularity. Hitler ultimately only served little more than 8…","slug":"/reddit/r/AskHistorians/comments/kwq1x4/why_was_hitler_pardoned_after_being_convicted_of/","title":"Why was Hitler pardoned after being convicted of treason for the failed Beer Hall Putsch?","date":"January 14, 2021","dateISO":"2021-01-14T16:41:41.000Z","datetime":"2021-01-14 16:41","tags":["AskHistorians","reddit"],"image":null,"imageAlt":null,"provider":"Reddit","thirdPartyId":"kwq1x4","url":"https://www.reddit.com/r/AskHistorians/comments/kwq1x4/why_was_hitler_pardoned_after_being_convicted_of/","originalUrl":"https://www.reddit.com/r/AskHistorians/comments/kwq1x4/why_was_hitler_pardoned_after_being_convicted_of/","imageRemote":null,"video":null,"channel":"AskHistorians","channelUrl":"https://www.reddit.com/r/AskHistorians","author":"roscoeperson","authorUrl":"https://www.reddit.com/user/roscoeperson","authorImage":null,"authorSlug":"roscoeperson","score":3087,"views":null,"sharedCount":null,"likeCount":null,"sharedContent":null,"parent":{"__typename":"RedditJson","localize":[{"title":"为什么希特勒因啤酒馆政变失败被判处叛国罪后被赦免？","the_new_excerpt":"1923年11月的啤酒馆政变似乎很严重。它失败了，希特勒\n最终被逮捕，并被控以叛国罪，但只被判处5年徒刑\n判决。在狱中，他撰写了《我的奋斗》的第一部分，并在狱中成长起来。\n知名度。希特勒最终只服了8个多... ...","locale":"zh"},{"title":"爲什麼希特勒因啤酒館政變失敗被判處叛國罪後被赦免？","the_new_excerpt":"1923年11月的啤酒館政變似乎很嚴重。它失敗了，希特勒\n最終被逮捕，並被控以叛國罪，但只被判處5年徒刑\n判決。在獄中，他撰寫了《我的奮鬥》的第一部分，並在獄中成長起來。\n知名度。希特勒最終只服了8個多... ...","locale":"zh-Hant"}]}}]}},"pageContext":{"basePath":"/","pageType":"tag","tag":"AskHistorians","tagsFilter":{"id":{"glob":"!*Post-1"}},"filter":{"id":{"glob":"!*Post-1"},"tags":{"eq":"AskHistorians"}},"limit":25,"skip":325,"total":332,"totalPages":14,"currentPage":14,"maxWidth":1024,"maxHeight":512,"locale":"en","hrefLang":"en-US","originalPath":"/tags/ask-historians/page/14","dateFormat":"MM/DD/YYYY"}},"staticQueryHashes":["1239077767","2506312863","2744905544","3025052997","3493603132","3493603132","3513215887","386998304"]}