{"componentChunkName":"component---node-modules-gatsby-theme-buzzing-src-gatsby-theme-timeline-templates-posts-query-js","path":"/zh-Hant/page/87","result":{"data":{"site":{"siteMetadata":{"title":"Reddit 热门提问","description":"用中文浏览 Reddit 上的热门提问","social":[{"name":"Ask Reddit","url":"https://www.reddit.com/r/AskReddit/","external":true,"prefetch":null},{"name":"Ask Politics","url":"https://www.reddit.com/r/Ask_Politics/","external":true,"prefetch":null},{"name":"Ask Historians","url":"https://www.reddit.com/r/AskHistorians/","external":true,"prefetch":null},{"name":"Ask Men","url":"https://www.reddit.com/r/AskMen/","external":true,"prefetch":null},{"name":"Ask Women","url":"https://www.reddit.com/r/AskWomen/","external":true,"prefetch":null},{"name":"Too Afraid To Ask","url":"https://www.reddit.com/r/TooAfraidToAsk/","external":true,"prefetch":null},{"name":"Buzzing","url":"https://www.buzzing.cc/","external":true,"prefetch":null}],"menuLinks":[],"localize":[{"locale":"en","title":"Buzzing on Ask","description":"See what's buzzing on Ask Headline in your native language","social":[{"name":"Reddit","url":"https://www.reddit.com/","external":true,"prefetch":null}],"menuLinks":[{"name":"Weekly Selection","url":"/issues","external":null,"prefetch":null}]},{"locale":"zh-Hant","title":"Reddit 熱門提問","description":"用中文瀏覽 Reddit 上的熱門提問","social":null,"menuLinks":[]}]}},"tagsGroup":{"group":[{"fieldValue":"AskHistorians","totalCount":332},{"fieldValue":"AskMen","totalCount":104},{"fieldValue":"AskReddit","totalCount":686},{"fieldValue":"AskWomen","totalCount":225},{"fieldValue":"Ask_Politics","totalCount":46},{"fieldValue":"NoStupidQuestions","totalCount":312},{"fieldValue":"TooAfraidToAsk","totalCount":225},{"fieldValue":"TrueAskReddit","totalCount":30},{"fieldValue":"askphilosophy","totalCount":58},{"fieldValue":"askscience","totalCount":141},{"fieldValue":"reddit","totalCount":2159}]},"allBlogPost":{"nodes":[{"__typename":"SocialMediaPost","id":"RedditPost-kx0b1y","excerpt":"","slug":"/reddit/r/AskReddit/comments/kx0b1y/you_are_offered_a_million_dollars_but_to_claim_it/","title":"You are offered a million dollars, but to claim it you must enter the last video game you played, and stay there for a year. If you accept the money, how's life there?","date":"January 14, 2021","dateISO":"2021-01-14T16:41:41.000Z","datetime":"2021-01-14 16:41","tags":["AskReddit","reddit"],"image":null,"imageAlt":null,"provider":"Reddit","thirdPartyId":"kx0b1y","url":"https://www.reddit.com/r/AskReddit/comments/kx0b1y/you_are_offered_a_million_dollars_but_to_claim_it/","originalUrl":"https://www.reddit.com/r/AskReddit/comments/kx0b1y/you_are_offered_a_million_dollars_but_to_claim_it/","imageRemote":null,"video":null,"channel":"AskReddit","channelUrl":"https://www.reddit.com/r/AskReddit","author":"clarishwang","authorUrl":"https://www.reddit.com/user/clarishwang","authorImage":null,"authorSlug":"clarishwang","score":32483,"views":null,"sharedCount":null,"likeCount":null,"sharedContent":null,"parent":{"__typename":"RedditJson","localize":[{"title":"你提供了一百万美元，但要索取它，你必须进入你玩的最后一个视频游戏，并留在那里一年。如果你接受了这笔钱，如何生活在那里？","the_new_excerpt":null,"locale":"zh"},{"title":"你提供了一百萬美元，但要索取它，你必須進入你玩的最後一個視頻遊戲，並留在那裏一年。如果你接受了這筆錢，如何生活在那裏？","the_new_excerpt":null,"locale":"zh-Hant"}]}},{"__typename":"SocialMediaPost","id":"RedditPost-kx44vd","excerpt":"","slug":"/reddit/r/AskReddit/comments/kx44vd/women_of_reddit_do_you_also_get_horny_singles_in/","title":"Women of reddit, do you also get 'horny singles in your area' ads, if not, what are your standard adverts?","date":"January 14, 2021","dateISO":"2021-01-14T16:41:41.000Z","datetime":"2021-01-14 16:41","tags":["AskReddit","reddit"],"image":null,"imageAlt":null,"provider":"Reddit","thirdPartyId":"kx44vd","url":"https://www.reddit.com/r/AskReddit/comments/kx44vd/women_of_reddit_do_you_also_get_horny_singles_in/","originalUrl":"https://www.reddit.com/r/AskReddit/comments/kx44vd/women_of_reddit_do_you_also_get_horny_singles_in/","imageRemote":null,"video":null,"channel":"AskReddit","channelUrl":"https://www.reddit.com/r/AskReddit","author":"Aperson1966","authorUrl":"https://www.reddit.com/user/Aperson1966","authorImage":null,"authorSlug":"Aperson1966","score":7079,"views":null,"sharedCount":null,"likeCount":null,"sharedContent":null,"parent":{"__typename":"RedditJson","localize":[{"title":"红网的女性，你也会收到 \"你所在地区的饥渴单身汉 \"的广告，如果没有，你的标准广告是什么？","the_new_excerpt":null,"locale":"zh"},{"title":"紅網的女性，你也會收到 \"你所在地區的飢渴單身漢 \"的廣告，如果沒有，你的標準廣告是什麼？","the_new_excerpt":null,"locale":"zh-Hant"}]}},{"__typename":"SocialMediaPost","id":"RedditPost-kwo6ng","excerpt":"Because seriously it’s been one of those days and I don’t want to go home and\nunintentionally take it out on my family","slug":"/reddit/r/AskWomen/comments/kwo6ng/how_do_you_get_yourself_out_of_the_everybody_is/","title":"How do you get yourself out of the “everybody is pissing me off today” mood?","date":"January 14, 2021","dateISO":"2021-01-14T16:41:41.000Z","datetime":"2021-01-14 16:41","tags":["AskWomen","reddit"],"image":null,"imageAlt":null,"provider":"Reddit","thirdPartyId":"kwo6ng","url":"https://www.reddit.com/r/AskWomen/comments/kwo6ng/how_do_you_get_yourself_out_of_the_everybody_is/","originalUrl":"https://www.reddit.com/r/AskWomen/comments/kwo6ng/how_do_you_get_yourself_out_of_the_everybody_is/","imageRemote":null,"video":null,"channel":"AskWomen","channelUrl":"https://www.reddit.com/r/AskWomen","author":"rockyroadandpizza","authorUrl":"https://www.reddit.com/user/rockyroadandpizza","authorImage":null,"authorSlug":"rockyroadandpizza","score":260,"views":null,"sharedCount":null,"likeCount":null,"sharedContent":null,"parent":{"__typename":"RedditJson","localize":[{"title":"如何让自己从 \"今天大家都在气我 \"的情绪中走出来？","the_new_excerpt":"因为严重的是，它是那些天之一 我不想回家和\n迁怒于家人","locale":"zh"},{"title":"如何讓自己從 \"今天大家都在氣我 \"的情緒中走出來？","the_new_excerpt":"因爲嚴重的是，它是那些天之一 我不想回家和\n遷怒於家人","locale":"zh-Hant"}]}},{"__typename":"SocialMediaPost","id":"RedditPost-kwoe77","excerpt":"","slug":"/reddit/r/AskWomen/comments/kwoe77/how_much_does_it_mean_to_you_to_get_a_random/","title":"How much does it mean to you to get a random smile from your SO? and How often do you smile at your SO as a sign of affection?","date":"January 14, 2021","dateISO":"2021-01-14T16:41:41.000Z","datetime":"2021-01-14 16:41","tags":["AskWomen","reddit"],"image":null,"imageAlt":null,"provider":"Reddit","thirdPartyId":"kwoe77","url":"https://www.reddit.com/r/AskWomen/comments/kwoe77/how_much_does_it_mean_to_you_to_get_a_random/","originalUrl":"https://www.reddit.com/r/AskWomen/comments/kwoe77/how_much_does_it_mean_to_you_to_get_a_random/","imageRemote":null,"video":null,"channel":"AskWomen","channelUrl":"https://www.reddit.com/r/AskWomen","author":"UnwantedJason","authorUrl":"https://www.reddit.com/user/UnwantedJason","authorImage":null,"authorSlug":"UnwantedJason","score":909,"views":null,"sharedCount":null,"likeCount":null,"sharedContent":null,"parent":{"__typename":"RedditJson","localize":[{"title":"得到SO的随意一笑对你来说有多大的意义，你多长时间对SO笑一次以示爱意？","the_new_excerpt":null,"locale":"zh"},{"title":"得到SO的隨意一笑對你來說有多大的意義，你多長時間對SO笑一次以示愛意？","the_new_excerpt":null,"locale":"zh-Hant"}]}},{"__typename":"SocialMediaPost","id":"RedditPost-kwzi41","excerpt":"","slug":"/reddit/r/AskWomen/comments/kwzi41/women_of_reddit_what_is_the_craziest_or_oddest/","title":"Women of Reddit: What is the craziest or oddest thing someone has said to you to try and initiate sex?","date":"January 14, 2021","dateISO":"2021-01-14T16:41:41.000Z","datetime":"2021-01-14 16:41","tags":["AskWomen","reddit"],"image":null,"imageAlt":null,"provider":"Reddit","thirdPartyId":"kwzi41","url":"https://www.reddit.com/r/AskWomen/comments/kwzi41/women_of_reddit_what_is_the_craziest_or_oddest/","originalUrl":"https://www.reddit.com/r/AskWomen/comments/kwzi41/women_of_reddit_what_is_the_craziest_or_oddest/","imageRemote":null,"video":null,"channel":"AskWomen","channelUrl":"https://www.reddit.com/r/AskWomen","author":"sweet_tooth_junky82","authorUrl":"https://www.reddit.com/user/sweet_tooth_junky82","authorImage":null,"authorSlug":"sweet_tooth_junky82","score":1026,"views":null,"sharedCount":null,"likeCount":null,"sharedContent":null,"parent":{"__typename":"RedditJson","localize":[{"title":"Reddit的女性。什么是最疯狂或最奇怪的事情 有人对你说，试图启动性？","the_new_excerpt":null,"locale":"zh"},{"title":"Reddit的女性。什麼是最瘋狂或最奇怪的事情 有人對你說，試圖啓動性？","the_new_excerpt":null,"locale":"zh-Hant"}]}},{"__typename":"SocialMediaPost","id":"RedditPost-kwmqva","excerpt":"The whig party no longer exists as it did in the early years of the United\nStates, the Federalist party is the same. What would it take for the Democratic\nor Republican party to end up with a similar fate?","slug":"/reddit/r/Ask_Politics/comments/kwmqva/what_would_have_to_happen_for_a_political_party/","title":"What would have to happen for a political party to disappear?","date":"January 14, 2021","dateISO":"2021-01-14T16:41:41.000Z","datetime":"2021-01-14 16:41","tags":["Ask_Politics","reddit"],"image":null,"imageAlt":null,"provider":"Reddit","thirdPartyId":"kwmqva","url":"https://www.reddit.com/r/Ask_Politics/comments/kwmqva/what_would_have_to_happen_for_a_political_party/","originalUrl":"https://www.reddit.com/r/Ask_Politics/comments/kwmqva/what_would_have_to_happen_for_a_political_party/","imageRemote":null,"video":null,"channel":"Ask_Politics","channelUrl":"https://www.reddit.com/r/Ask_Politics","author":"Jiminy267","authorUrl":"https://www.reddit.com/user/Jiminy267","authorImage":null,"authorSlug":"Jiminy267","score":135,"views":null,"sharedCount":null,"likeCount":null,"sharedContent":null,"parent":{"__typename":"RedditJson","localize":[{"title":"要想让一个政党消失，必须要发生什么？","the_new_excerpt":"惠格党已不复存在，因为它在美国的初期\n国，联邦党也是如此。要想让民主党\n或共和党以类似的命运收场？","locale":"zh"},{"title":"要想讓一個政黨消失，必須要發生什麼？","the_new_excerpt":"惠格黨已不復存在，因爲它在美國的初期\n國，聯邦黨也是如此。要想讓民主黨\n或共和黨以類似的命運收場？","locale":"zh-Hant"}]}},{"__typename":"SocialMediaPost","id":"RedditPost-kwl8v4","excerpt":"I know my karma is going to reach the negatives because of this, but I am\ngenuinely curious. (Before I continue, I just want to say I'm extremely sorry if\nthis offends, and makes anyone uncomfortable, especially if you're non-binary\nyourself; I feel the same way about you just like I do with normal…","slug":"/reddit/r/TooAfraidToAsk/comments/kwl8v4/what_do_nonbinary_people_have_as_genitals/","title":"What do non-binary people have as genitals??","date":"January 14, 2021","dateISO":"2021-01-14T16:41:41.000Z","datetime":"2021-01-14 16:41","tags":["TooAfraidToAsk","reddit"],"image":null,"imageAlt":null,"provider":"Reddit","thirdPartyId":"kwl8v4","url":"https://www.reddit.com/r/TooAfraidToAsk/comments/kwl8v4/what_do_nonbinary_people_have_as_genitals/","originalUrl":"https://www.reddit.com/r/TooAfraidToAsk/comments/kwl8v4/what_do_nonbinary_people_have_as_genitals/","imageRemote":null,"video":null,"channel":"TooAfraidToAsk","channelUrl":"https://www.reddit.com/r/TooAfraidToAsk","author":"JuicyGravitas","authorUrl":"https://www.reddit.com/user/JuicyGravitas","authorImage":null,"authorSlug":"JuicyGravitas","score":143,"views":null,"sharedCount":null,"likeCount":null,"sharedContent":null,"parent":{"__typename":"RedditJson","localize":[{"title":"非双性恋者的生殖器是什么？","the_new_excerpt":"我知道我的业力会因此而达到负数，但我是。\n真的很好奇。(在我继续说下去之前，我只想说我非常抱歉，如果......)。\n这让人不爽，让人不舒服，特别是如果你是非二元的\n你自己；我对你有同样的感觉，就像我对普通...","locale":"zh"},{"title":"非雙性戀者的生殖器是什麼？","the_new_excerpt":"我知道我的業力會因此而達到負數，但我是。\n真的很好奇。(在我繼續說下去之前，我只想說我非常抱歉，如果......)。\n這讓人不爽，讓人不舒服，特別是如果你是非二元的\n你自己；我對你有同樣的感覺，就像我對普通...","locale":"zh-Hant"}]}},{"__typename":"SocialMediaPost","id":"RedditPost-kwslg8","excerpt":"Asking because I've never done it and never really thought about doing it. Sex\nyeah, but masturbating? Never crossed my mind until this just happened:\n\nRoommate was very loudly bumping \"DNA\" by Kendrick Lamar in the bathroom next to\nmy room and the process of me finishing was beginning just as the…","slug":"/reddit/r/TooAfraidToAsk/comments/kwslg8/is_masturbating_to_music_a_thing/","title":"Is masturbating to music a thing?","date":"January 14, 2021","dateISO":"2021-01-14T16:41:41.000Z","datetime":"2021-01-14 16:41","tags":["TooAfraidToAsk","reddit"],"image":null,"imageAlt":null,"provider":"Reddit","thirdPartyId":"kwslg8","url":"https://www.reddit.com/r/TooAfraidToAsk/comments/kwslg8/is_masturbating_to_music_a_thing/","originalUrl":"https://www.reddit.com/r/TooAfraidToAsk/comments/kwslg8/is_masturbating_to_music_a_thing/","imageRemote":null,"video":null,"channel":"TooAfraidToAsk","channelUrl":"https://www.reddit.com/r/TooAfraidToAsk","author":"spydermanspyderman","authorUrl":"https://www.reddit.com/user/spydermanspyderman","authorImage":null,"authorSlug":"spydermanspyderman","score":4475,"views":null,"sharedCount":null,"likeCount":null,"sharedContent":null,"parent":{"__typename":"RedditJson","localize":[{"title":"听着音乐自慰是一件事吗？","the_new_excerpt":"之所以这样问，是因为我从来没有做过，也没有想过要做。性\n是的，但手淫？从来没有想过我的想法，直到这个刚刚发生。\n\n室友在浴室里大声播放Kendrick Lamar的 \"DNA\"，就在旁边的卫生间里\n我的房间和我完成的过程是开始 只是因为... ...","locale":"zh"},{"title":"聽着音樂自慰是一件事嗎？","the_new_excerpt":"之所以這樣問，是因爲我從來沒有做過，也沒有想過要做。性\n是的，但手淫？從來沒有想過我的想法，直到這個剛剛發生。\n\n室友在浴室裏大聲播放Kendrick Lamar的 \"DNA\"，就在旁邊的衛生間裏\n我的房間和我完成的過程是開始 只是因爲... ...","locale":"zh-Hant"}]}},{"__typename":"SocialMediaPost","id":"RedditPost-kwzx52","excerpt":"","slug":"/reddit/r/TooAfraidToAsk/comments/kwzx52/anyone_else_feel_like_theyre_good_at_recognising/","title":"Anyone else feel like they’re good at recognising your own problems/flaws but struggle to actively solve them?","date":"January 14, 2021","dateISO":"2021-01-14T16:41:41.000Z","datetime":"2021-01-14 16:41","tags":["TooAfraidToAsk","reddit"],"image":null,"imageAlt":null,"provider":"Reddit","thirdPartyId":"kwzx52","url":"https://www.reddit.com/r/TooAfraidToAsk/comments/kwzx52/anyone_else_feel_like_theyre_good_at_recognising/","originalUrl":"https://www.reddit.com/r/TooAfraidToAsk/comments/kwzx52/anyone_else_feel_like_theyre_good_at_recognising/","imageRemote":null,"video":null,"channel":"TooAfraidToAsk","channelUrl":"https://www.reddit.com/r/TooAfraidToAsk","author":"GreedyGlove","authorUrl":"https://www.reddit.com/user/GreedyGlove","authorImage":null,"authorSlug":"GreedyGlove","score":356,"views":null,"sharedCount":null,"likeCount":null,"sharedContent":null,"parent":{"__typename":"RedditJson","localize":[{"title":"还有人觉得自己善于认识自己的问题/缺点，但却难以积极解决吗？","the_new_excerpt":null,"locale":"zh"},{"title":"還有人覺得自己善於認識自己的問題/缺點，但卻難以積極解決嗎？","the_new_excerpt":null,"locale":"zh-Hant"}]}}]}},"pageContext":{"basePath":"/","pageType":"home","tagsFilter":{"id":{"glob":"!*Post-1"}},"filter":{"id":{"glob":"!*Post-1"}},"limit":25,"skip":2150,"totalPages":87,"total":2159,"currentPage":87,"maxWidth":1024,"maxHeight":512,"locale":"zh-Hant","hrefLang":"zh-Hant","originalPath":"/page/87","dateFormat":"YYYY-MM-DD"}},"staticQueryHashes":["1239077767","2506312863","2744905544","3025052997","3493603132","3493603132","3513215887","386998304"]}