{"componentChunkName":"component---node-modules-gatsby-theme-buzzing-src-gatsby-theme-timeline-templates-posts-query-js","path":"/zh-Hant/tags/askphilosophy/page/3","result":{"data":{"site":{"siteMetadata":{"title":"Reddit 热门提问","description":"用中文浏览 Reddit 上的热门提问","social":[{"name":"Ask Reddit","url":"https://www.reddit.com/r/AskReddit/","external":true,"prefetch":null},{"name":"Ask Politics","url":"https://www.reddit.com/r/Ask_Politics/","external":true,"prefetch":null},{"name":"Ask Historians","url":"https://www.reddit.com/r/AskHistorians/","external":true,"prefetch":null},{"name":"Ask Men","url":"https://www.reddit.com/r/AskMen/","external":true,"prefetch":null},{"name":"Ask Women","url":"https://www.reddit.com/r/AskWomen/","external":true,"prefetch":null},{"name":"Too Afraid To Ask","url":"https://www.reddit.com/r/TooAfraidToAsk/","external":true,"prefetch":null},{"name":"Buzzing","url":"https://www.buzzing.cc/","external":true,"prefetch":null}],"menuLinks":[],"localize":[{"locale":"en","title":"Buzzing on Ask","description":"See what's buzzing on Ask Headline in your native language","social":[{"name":"Reddit","url":"https://www.reddit.com/","external":true,"prefetch":null}],"menuLinks":[{"name":"Weekly Selection","url":"/issues","external":null,"prefetch":null}]},{"locale":"zh-Hant","title":"Reddit 熱門提問","description":"用中文瀏覽 Reddit 上的熱門提問","social":null,"menuLinks":[]}]}},"tagsGroup":{"group":[{"fieldValue":"AskHistorians","totalCount":332},{"fieldValue":"AskMen","totalCount":104},{"fieldValue":"AskReddit","totalCount":686},{"fieldValue":"AskWomen","totalCount":225},{"fieldValue":"Ask_Politics","totalCount":46},{"fieldValue":"NoStupidQuestions","totalCount":312},{"fieldValue":"TooAfraidToAsk","totalCount":225},{"fieldValue":"TrueAskReddit","totalCount":30},{"fieldValue":"askphilosophy","totalCount":58},{"fieldValue":"askscience","totalCount":141},{"fieldValue":"reddit","totalCount":2159}]},"allBlogPost":{"nodes":[{"__typename":"SocialMediaPost","id":"RedditPost-l8dgxq","excerpt":"How do Christians reconcile their belief that God is both posited to be\nall-knowing and all-loving with the fact that he must then also create human\nbeings that he knows through his omniscience will suffer in hell for eternity?\n\nHow can God be all-loving and infinitely benevolent if he creates human…","slug":"/reddit/r/askphilosophy/comments/l8dgxq/god_creates_people_he_knows_will_go_to_hell/","title":"God Creates People He Knows Will Go To Hell","date":"January 30, 2021","dateISO":"2021-01-30T14:47:20.000Z","datetime":"2021-01-30 14:47","tags":["askphilosophy","reddit"],"image":null,"imageAlt":null,"provider":"Reddit","thirdPartyId":"l8dgxq","url":"https://www.reddit.com/r/askphilosophy/comments/l8dgxq/god_creates_people_he_knows_will_go_to_hell/","originalUrl":"https://www.reddit.com/r/askphilosophy/comments/l8dgxq/god_creates_people_he_knows_will_go_to_hell/","imageRemote":null,"video":null,"channel":"askphilosophy","channelUrl":"https://www.reddit.com/r/askphilosophy","author":"Terminal_Willness","authorUrl":"https://www.reddit.com/user/Terminal_Willness","authorImage":null,"authorSlug":"Terminal_Willness","score":106,"views":null,"sharedCount":null,"likeCount":null,"sharedContent":null,"parent":{"__typename":"RedditJson","localize":[{"title":"上帝创造了他知道会下地狱的人。","the_new_excerpt":"基督徒如何调和他们的信仰，即上帝既被假定为是\n全知全爱的人，他也必须创造人\n他通过其全知全能知道的众生将永远在地狱中受苦？\n\n如果上帝创造了人类，他怎么可能是全爱和无限仁慈的呢？","locale":"zh"},{"title":"上帝創造了他知道會下地獄的人。","the_new_excerpt":"基督徒如何調和他們的信仰，即上帝既被假定爲是\n全知全愛的人，他也必須創造人\n他通過其全知全能知道的衆生將永遠在地獄中受苦？\n\n如果上帝創造了人類，他怎麼可能是全愛和無限仁慈的呢？","locale":"zh-Hant"}]}},{"__typename":"SocialMediaPost","id":"RedditPost-l6zd6n","excerpt":"Dear friends,\n\nI finally got the time to properly finish the best of 2020 contest. We voted\n[https://new.reddit.com/r/askphilosophy/comments/krq0a6/best_question_of_2020_voting_thread/]\nand voted\n[https://new.reddit.com/r/askphilosophy/comments/kxwdbg/best_answer_of_2020_voting_thread/]\nand…","slug":"/reddit/r/askphilosophy/comments/l6zd6n/best_of_2020_final_results_and_celebration_thread/","title":"Best of 2020 - final results and celebration thread","date":"January 29, 2021","dateISO":"2021-01-29T01:05:29.000Z","datetime":"2021-01-29 01:05","tags":["askphilosophy","reddit"],"image":null,"imageAlt":null,"provider":"Reddit","thirdPartyId":"l6zd6n","url":"https://www.reddit.com/r/askphilosophy/comments/l6zd6n/best_of_2020_final_results_and_celebration_thread/","originalUrl":"https://www.reddit.com/r/askphilosophy/comments/l6zd6n/best_of_2020_final_results_and_celebration_thread/","imageRemote":null,"video":null,"channel":"askphilosophy","channelUrl":"https://www.reddit.com/r/askphilosophy","author":"as-well","authorUrl":"https://www.reddit.com/user/as-well","authorImage":null,"authorSlug":"as-well","score":110,"views":null,"sharedCount":null,"likeCount":null,"sharedContent":null,"parent":{"__typename":"RedditJson","localize":[{"title":"2020年最佳--最终结果和庆祝主题","the_new_excerpt":"亲爱的朋友们，\n\n我终于有时间好好地完成了2020年的最佳比赛。我们投了\n[https://new.reddit.com/r/askphilosophy/comments/krq0a6/best_question_of_2020_voting_thread/]\n并投票\n[https://new.reddit.com/r/askphilosophy/comments/kxwdbg/best_answer_of_2020_voting_thread/]\n还有...","locale":"zh"},{"title":"2020年最佳--最終結果和慶祝主題","the_new_excerpt":"親愛的朋友們，\n\n我終於有時間好好地完成了2020年的最佳比賽。我們投了\n[https://new.reddit.com/r/askphilosophy/comments/krq0a6/best_question_of_2020_voting_thread/]\n並投票\n[https://new.reddit.com/r/askphilosophy/comments/kxwdbg/best_answer_of_2020_voting_thread/]\n還有...","locale":"zh-Hant"}]}},{"__typename":"SocialMediaPost","id":"RedditPost-l5zx4e","excerpt":"Per Chomsky on the origin of the title for Manufacturing Consent\n[https://youtu.be/EuwmWnphqII?t=1508]:\n\nIn a military state or in a feudal state, or what you would nowadays call a\ntotalitarians state, it doesn't much matter what people think, because you've\ngot a bludgeon over their head, and you…","slug":"/reddit/r/askphilosophy/comments/l5zx4e/is_noam_chomskys_thesis_of_manufacturing_consent/","title":"Is Noam Chomsky's thesis of Manufacturing Consent at odds with the data we have with respect to Social Media's impact on the psyche?","date":"January 27, 2021","dateISO":"2021-01-27T20:37:45.000Z","datetime":"2021-01-27 20:37","tags":["askphilosophy","reddit"],"image":null,"imageAlt":null,"provider":"Reddit","thirdPartyId":"l5zx4e","url":"https://www.reddit.com/r/askphilosophy/comments/l5zx4e/is_noam_chomskys_thesis_of_manufacturing_consent/","originalUrl":"https://www.reddit.com/r/askphilosophy/comments/l5zx4e/is_noam_chomskys_thesis_of_manufacturing_consent/","imageRemote":null,"video":null,"channel":"askphilosophy","channelUrl":"https://www.reddit.com/r/askphilosophy","author":"Mapverse1","authorUrl":"https://www.reddit.com/user/Mapverse1","authorImage":null,"authorSlug":"Mapverse1","score":142,"views":null,"sharedCount":null,"likeCount":null,"sharedContent":null,"parent":{"__typename":"RedditJson","localize":[{"title":"诺姆-乔姆斯基的 \"制造同意 \"的论述与我们掌握的关于社交媒体对心理的影响的数据是否有出入？","the_new_excerpt":"每乔姆斯基谈《制造同意》题目的由来\n[https://youtu.be/EuwmWnphqII?t=1508]。\n\n在军事国家或封建国家，或你们今天所说的... ...\n极权主义者的国家，人们怎么想并不重要，因为你已经... ...\n得到了一个打击他们的头，你... ...","locale":"zh"},{"title":"諾姆-喬姆斯基的 \"製造同意 \"的論述與我們掌握的關於社交媒體對心理的影響的數據是否有出入？","the_new_excerpt":"每喬姆斯基談《製造同意》題目的由來\n[https://youtu.be/EuwmWnphqII?t=1508]。\n\n在軍事國家或封建國家，或你們今天所說的... ...\n極權主義者的國家，人們怎麼想並不重要，因爲你已經... ...\n得到了一個打擊他們的頭，你... ...","locale":"zh-Hant"}]}},{"__typename":"SocialMediaPost","id":"RedditPost-l5lou9","excerpt":"Many philosophies seem to espouse that how we perceive and respond to pain is\nimportant and determines our capacity to recover from it. Philosophies then go\nonto say something like:\n\n * \"understand that your suffering and whatever has caused it is\n   natural/inevitable/part of the circle of life\"\n  …","slug":"/reddit/r/askphilosophy/comments/l5lou9/can_philosophy_really_help_you_deal_with/","title":"Can philosophy really help you deal with suffering? How? I have not been convinced by schools such as Stoicism and Buhdism.","date":"January 27, 2021","dateISO":"2021-01-27T09:57:16.000Z","datetime":"2021-01-27 09:57","tags":["askphilosophy","reddit"],"image":null,"imageAlt":null,"provider":"Reddit","thirdPartyId":"l5lou9","url":"https://www.reddit.com/r/askphilosophy/comments/l5lou9/can_philosophy_really_help_you_deal_with/","originalUrl":"https://www.reddit.com/r/askphilosophy/comments/l5lou9/can_philosophy_really_help_you_deal_with/","imageRemote":null,"video":null,"channel":"askphilosophy","channelUrl":"https://www.reddit.com/r/askphilosophy","author":"GanonR","authorUrl":"https://www.reddit.com/user/GanonR","authorImage":null,"authorSlug":"GanonR","score":109,"views":null,"sharedCount":null,"likeCount":null,"sharedContent":null,"parent":{"__typename":"RedditJson","localize":[{"title":"哲学真的能帮你应对痛苦吗？如何帮助？我对斯多葛派、布达拉派等学派不以为然。","the_new_excerpt":"许多哲学似乎主张，我们如何感知和应对痛苦是。\n重要，并决定了我们从中恢复的能力。哲学则是去\n然后说一些像，\n\n * \"明白你的痛苦以及造成它的任何原因是：\n   自然/不可避免/生活圈的一部分\"\n  …","locale":"zh"},{"title":"哲學真的能幫你應對痛苦嗎？如何幫助？我對斯多葛派、布達拉派等學派不以爲然。","the_new_excerpt":"許多哲學似乎主張，我們如何感知和應對痛苦是。\n重要，並決定了我們從中恢復的能力。哲學則是去\n然後說一些像，\n\n * \"明白你的痛苦以及造成它的任何原因是：\n   自然/不可避免/生活圈的一部分\"\n  …","locale":"zh-Hant"}]}},{"__typename":"SocialMediaPost","id":"RedditPost-l57zlp","excerpt":"I've recently left Christianity, and this is the main question I'm grappling\nwith. Take what are, at least in my opinion, the two basic \"moral\" standards\nmost people hold: the golden rule and justice/fairness. From a religious\nperspective, actions in line with these principles are objectively good…","slug":"/reddit/r/askphilosophy/comments/l57zlp/how_can_morals_exist_without_religion/","title":"(How) Can morals exist without religion?","date":"January 26, 2021","dateISO":"2021-01-26T19:42:37.000Z","datetime":"2021-01-26 19:42","tags":["askphilosophy","reddit"],"image":null,"imageAlt":null,"provider":"Reddit","thirdPartyId":"l57zlp","url":"https://www.reddit.com/r/askphilosophy/comments/l57zlp/how_can_morals_exist_without_religion/","originalUrl":"https://www.reddit.com/r/askphilosophy/comments/l57zlp/how_can_morals_exist_without_religion/","imageRemote":null,"video":null,"channel":"askphilosophy","channelUrl":"https://www.reddit.com/r/askphilosophy","author":"JARVIS__78","authorUrl":"https://www.reddit.com/user/JARVIS__78","authorImage":null,"authorSlug":"JARVIS__78","score":143,"views":null,"sharedCount":null,"likeCount":null,"sharedContent":null,"parent":{"__typename":"RedditJson","localize":[{"title":"(如何)没有宗教，道德可以存在吗？","the_new_excerpt":"我最近离开了基督教，这是我正在努力解决的主要问题。\n与。以至少在我看来，两个基本的 \"道德 \"标准是什么？\n大多数人认为：金科玉律和正义/公平。从宗教\n角度，符合这些原则的行为客观上是好的...","locale":"zh"},{"title":"(如何)沒有宗教，道德可以存在嗎？","the_new_excerpt":"我最近離開了基督教，這是我正在努力解決的主要問題。\n與。以至少在我看來，兩個基本的 \"道德 \"標準是什麼？\n大多數人認爲：金科玉律和正義/公平。從宗教\n角度，符合這些原則的行爲客觀上是好的...","locale":"zh-Hant"}]}},{"__typename":"SocialMediaPost","id":"RedditPost-l4q7fw","excerpt":"","slug":"/reddit/r/askphilosophy/comments/l4q7fw/if_someone_wants_to_commit_suicide_should_we_as_a/","title":"if someone wants to commit suicide, should we as a society let them?","date":"January 26, 2021","dateISO":"2021-01-26T02:06:45.000Z","datetime":"2021-01-26 02:06","tags":["askphilosophy","reddit"],"image":null,"imageAlt":null,"provider":"Reddit","thirdPartyId":"l4q7fw","url":"https://www.reddit.com/r/askphilosophy/comments/l4q7fw/if_someone_wants_to_commit_suicide_should_we_as_a/","originalUrl":"https://www.reddit.com/r/askphilosophy/comments/l4q7fw/if_someone_wants_to_commit_suicide_should_we_as_a/","imageRemote":null,"video":null,"channel":"askphilosophy","channelUrl":"https://www.reddit.com/r/askphilosophy","author":"Upset-Pool4864","authorUrl":"https://www.reddit.com/user/Upset-Pool4864","authorImage":null,"authorSlug":"Upset-Pool4864","score":164,"views":null,"sharedCount":null,"likeCount":null,"sharedContent":null,"parent":{"__typename":"RedditJson","localize":[{"title":"如果有人想自杀，我们这个社会应该让他自杀吗？","the_new_excerpt":null,"locale":"zh"},{"title":"如果有人想自殺，我們這個社會應該讓他自殺嗎？","the_new_excerpt":null,"locale":"zh-Hant"}]}},{"__typename":"SocialMediaPost","id":"RedditPost-l4c71z","excerpt":"To elaborate on the title,\n\nI understand that Plato was vital to the development of philosophy, and that he\nhas incredible historical significance. I think that through a historical lens,\nall of the praise that Plato recieves is justified—he was ahead of his time.\nThat being said, I'm completely…","slug":"/reddit/r/askphilosophy/comments/l4c71z/can_someone_explain_to_me_why_platos_work_isnt/","title":"Can someone explain to me why Plato's work isn't terrible?","date":"January 25, 2021","dateISO":"2021-01-25T14:12:37.000Z","datetime":"2021-01-25 14:12","tags":["askphilosophy","reddit"],"image":null,"imageAlt":null,"provider":"Reddit","thirdPartyId":"l4c71z","url":"https://www.reddit.com/r/askphilosophy/comments/l4c71z/can_someone_explain_to_me_why_platos_work_isnt/","originalUrl":"https://www.reddit.com/r/askphilosophy/comments/l4c71z/can_someone_explain_to_me_why_platos_work_isnt/","imageRemote":null,"video":null,"channel":"askphilosophy","channelUrl":"https://www.reddit.com/r/askphilosophy","author":"Choruzon","authorUrl":"https://www.reddit.com/user/Choruzon","authorImage":null,"authorSlug":"Choruzon","score":116,"views":null,"sharedCount":null,"likeCount":null,"sharedContent":null,"parent":{"__typename":"RedditJson","localize":[{"title":"谁能给我解释一下为什么柏拉图的作品不可怕？","the_new_excerpt":"详解标题。\n\n我知道柏拉图对哲学的发展至关重要，他是\n具有不可思议的历史意义。我认为，从历史的角度来看。\n所有的赞美，柏拉图recieves是有道理的，他是领先于他的时间。\n话虽如此，我完全...","locale":"zh"},{"title":"誰能給我解釋一下爲什麼柏拉圖的作品不可怕？","the_new_excerpt":"詳解標題。\n\n我知道柏拉圖對哲學的發展至關重要，他是\n具有不可思議的歷史意義。我認爲，從歷史的角度來看。\n所有的讚美，柏拉圖recieves是有道理的，他是領先於他的時間。\n話雖如此，我完全...","locale":"zh-Hant"}]}},{"__typename":"SocialMediaPost","id":"RedditPost-l349dv","excerpt":"A drug addicts brain has been rewired to receive dopamine from the drug they\ntake, rather than natural methods. The drug becomes the brains top priority. So\nwhy would your subconscious decide to stop using what your neural pathways rely\non for pleasure? You could argue that your brain recognizes the…","slug":"/reddit/r/askphilosophy/comments/l349dv/does_beating_addiction_give_evidence_of_free_will/","title":"Does beating addiction give evidence of free will?","date":"January 23, 2021","dateISO":"2021-01-23T20:17:36.000Z","datetime":"2021-01-23 20:17","tags":["askphilosophy","reddit"],"image":null,"imageAlt":null,"provider":"Reddit","thirdPartyId":"l349dv","url":"https://www.reddit.com/r/askphilosophy/comments/l349dv/does_beating_addiction_give_evidence_of_free_will/","originalUrl":"https://www.reddit.com/r/askphilosophy/comments/l349dv/does_beating_addiction_give_evidence_of_free_will/","imageRemote":null,"video":null,"channel":"askphilosophy","channelUrl":"https://www.reddit.com/r/askphilosophy","author":"Over_Point_9646","authorUrl":"https://www.reddit.com/user/Over_Point_9646","authorImage":null,"authorSlug":"Over_Point_9646","score":166,"views":null,"sharedCount":null,"likeCount":null,"sharedContent":null,"parent":{"__typename":"RedditJson","localize":[{"title":"殴打成瘾是否能提供自由意志的证据？","the_new_excerpt":"吸毒者的大脑已经被重新连接，从他们的药物中接收多巴胺。\n取，而不是自然方法。药物成为大脑的首要任务。所以\n为什么你的潜意识会决定停止使用你的神经通路所依赖的东西？\n为了快乐？你可以说，你的大脑识别... ...","locale":"zh"},{"title":"毆打成癮是否能提供自由意志的證據？","the_new_excerpt":"吸毒者的大腦已經被重新連接，從他們的藥物中接收多巴胺。\n取，而不是自然方法。藥物成爲大腦的首要任務。所以\n爲什麼你的潛意識會決定停止使用你的神經通路所依賴的東西？\n爲了快樂？你可以說，你的大腦識別... ...","locale":"zh-Hant"}]}}]}},"pageContext":{"basePath":"/","pageType":"tag","tag":"askphilosophy","tagsFilter":{"id":{"glob":"!*Post-1"}},"filter":{"id":{"glob":"!*Post-1"},"tags":{"eq":"askphilosophy"}},"limit":25,"skip":50,"total":58,"totalPages":3,"currentPage":3,"maxWidth":1024,"maxHeight":512,"locale":"zh-Hant","hrefLang":"zh-Hant","originalPath":"/tags/askphilosophy/page/3","dateFormat":"YYYY-MM-DD"}},"staticQueryHashes":["1239077767","2506312863","2744905544","3025052997","3493603132","3493603132","3513215887","386998304"]}